{
  "Chiropractic": {"sp_slug": "chiropractor"},
  "Cardiologists": {"sp_slug": "cardiologist"},
  "Dentists": {"sp_slug": "dentist"},
  "Dermatologists": {"sp_slug": "dermatologist"},
  "Massage Therapist": {"sp_slug": "massage-therapist"},
  "Nephrologists": {"sp_slug": "nephrologist"},
  "Neurologists": {"sp_slug": "neurologist"},
  "Oncologists": {"sp_slug": "hematologist-oncologist"},
  "Pediatrician": {"sp_slug": "pediatrician"},
  "Family Medicine": {"sp_slug": "family-medicine-doctor"}
}