<?xml version="1.0" encoding="UTF-8"?>
<svg width="14px" height="12px" viewBox="0 0 14 12" version="1.1" xmlns="http://www.w3.org/2000/svg" xmlns:xlink="http://www.w3.org/1999/xlink">
    <!-- Generator: Sketch 52.6 (67491) - http://www.bohemiancoding.com/sketch -->
    <title>reply</title>
    <desc>Created with Sketch.</desc>
    <g id="Design" stroke="none" stroke-width="1" fill="none" fill-rule="evenodd">
        <g id="Profile_Dashboard---Review" transform="translate(-1185.000000, -770.000000)" fill="#00B07A" fill-rule="nonzero">
            <g id="reply" transform="translate(1185.000000, 770.000000)">
                <path d="M13.5859368,5.42275891 C12.7420216,3.40770189 10.4634425,2.40014711 6.74992573,2.40014711 L4.99995309,2.40014711 L4.99995309,0.480108232 C4.99995309,0.350019812 4.95045267,0.237505938 4.85153392,0.142540341 C4.75256043,0.0475222035 4.63547237,0 4.49999609,0 C4.36449245,0 4.24729493,0.0475222035 4.14837618,0.142540341 L0.148419176,3.9826181 C0.0495004222,4.07771505 0,4.19017638 0,4.32018599 C0,4.45016933 0.0495004222,4.56263067 0.148419176,4.65767507 L4.14840354,8.49785791 C4.24743175,8.59277097 4.36462926,8.64045079 4.50002345,8.64045079 C4.63539028,8.64045079 4.75256043,8.59279724 4.85156128,8.49785791 C4.9505074,8.40291858 4.99998045,8.29037844 4.99998045,8.16034256 L4.99998045,6.24017233 L6.74995309,6.24017233 C7.26025346,6.24017233 7.71722253,6.25509362 8.12083294,6.28504128 C8.52441599,6.31506774 8.92567314,6.36881591 9.32394768,6.44641712 C9.72246849,6.52391325 10.0688894,6.63006981 10.3631829,6.76520205 C10.6574217,6.90033428 10.9321778,7.0740307 11.1874238,7.2864489 C11.4426971,7.49907727 11.6510422,7.75142569 11.8125958,8.04404582 C11.9739305,8.33658715 12.1002674,8.68269275 12.1914697,9.0827304 C12.2824804,9.48279433 12.3282046,9.93534546 12.3282046,10.4402262 C12.3282046,10.7151667 12.3150976,11.0227869 12.2891297,11.3627716 C12.2891297,11.3926405 12.2826719,11.4514325 12.2695648,11.53899 C12.2566219,11.6265475 12.2500821,11.6927213 12.2500821,11.7376428 C12.2500821,11.8125382 12.2721917,11.8750867 12.3163837,11.9251046 C12.3607671,11.9750699 12.4220064,12 12.5001016,12 C12.5834506,12 12.656292,11.9575742 12.7188448,11.8725123 C12.7551834,11.8275645 12.7889225,11.7725292 12.8203631,11.7074587 C12.8516395,11.6425458 12.8868562,11.5675716 12.9258217,11.482536 C12.9649787,11.3975004 12.9923148,11.3377102 13.0078572,11.3026399 C13.669231,9.87781443 14,8.75031141 14,7.9202359 C13.9999453,6.92531694 13.8620063,6.09269325 13.5859368,5.42275891 Z" id="Path"></path>
            </g>
        </g>
    </g>
</svg>