<?xml version="1.0" encoding="UTF-8"?>
<svg width="32px" height="22px" viewBox="0 0 32 22" version="1.1" xmlns="http://www.w3.org/2000/svg" xmlns:xlink="http://www.w3.org/1999/xlink">
    <!-- Generator: Sketch 52.6 (67491) - http://www.bohemiancoding.com/sketch -->
    <title>Group 16 Copy 3</title>
    <desc>Created with Sketch.</desc>
    <g id="Design" stroke="none" stroke-width="1" fill="none" fill-rule="evenodd">
        <g id="Homepage" transform="translate(-552.000000, -2997.000000)">
            <g id="Group-12-Copy-4" transform="translate(0.000000, 2656.000000)">
                <g id="Group-20" transform="translate(408.000000, 336.000000)">
                    <g id="Group-16-Copy-3" transform="translate(144.000000, 0.000000)">
                        <rect id="Rectangle" x="0" y="0" width="32" height="32"></rect>
                        <g id="youtube-symbol" transform="translate(0.000000, 5.000000)" fill="#FFFFFF" fill-rule="nonzero">
                            <path d="M31.4470388,3.53896314 C31.0552762,1.86035609 29.6632969,0.621927248 27.9875705,0.437189244 C24.0194055,0.000269202707 20.0030134,-0.00201151339 16.0051194,0.000269202707 C12.0065647,-0.00201151339 7.98951195,0.000269202707 4.02134694,0.437189244 C2.34661152,0.621927248 0.955623189,1.86035609 0.563860623,3.53896314 C0.00627612879,5.92947943 0,8.53894446 0,11.0001629 C0,13.4613814 0,16.0705207 0.557584495,18.4607111 C0.948686415,20.1389924 2.34000507,21.3774212 4.01573146,21.562485 C7.98356614,21.9997309 12.0002886,22.0020116 15.9988433,21.9997309 C19.9980586,22.0020116 24.01379,21.9997309 27.9812944,21.562485 C29.6560298,21.377747 31.0483395,20.1393182 31.440102,18.4607111 C31.9980168,16.0701948 31.9999988,13.4610556 31.9999988,11.0001629 C31.9999988,8.53894446 32.0046233,5.92947943 31.4470388,3.53896314 Z M11.8704718,15.8991411 C11.8704718,12.4076906 11.8704718,8.95273153 11.8704718,5.46095518 C15.2618936,7.20635463 18.6308535,8.94002468 22.0437462,10.6961761 C18.6414238,12.4366883 15.2708123,14.1599322 11.8704718,15.8991411 Z" id="Shape"></path>
                        </g>
                    </g>
                </g>
            </g>
        </g>
    </g>
</svg>