{
  "Ayurveda": {"sp_slug": "ayurvedic-doctor"},
  "Cardiologists": {"sp_slug": "cardiologist"},
  "Chiropractors": {"sp_slug": "chiropractor"},
  "Dentists": {"sp_slug": "dentist"},
  "Dermatologists": {"sp_slug": "dermatologist"},
  "Nephrologists": {"sp_slug": "nephrologist"},
  "Neurologists": {"sp_slug": "neurologist"},
  "Oncologists": {"sp_slug": "hematologist-oncologist"},
  "Orthopedician": {"sp_slug": "orthopedic-surgeon"},
  "Pediatrician": {"sp_slug": "pediatrician"},
  "Family Medicine": {"sp_slug": "family-medicine-doctor"},
  "Urologists": {"sp_slug": "urologist"}
}