020026,HUSA0001
020017,HUSA0002
020008,HUSA0003
020024,HUSA0004
021307,HUSA0005
020012,HUSA0006
021309,HUSA0007
020006,HUSA0008
020027,HUSA0009
021308,HUSA0010
021311,HUSA0011
021304,HUSA0012
020001,HUSA0013
021306,HUSA0014
021302,HUSA0015
021301,HUSA0016
021312,HUSA0017
021303,HUSA0018
021313,HUSA0019
021305,HUSA0020
020018,HUSA0021
010036,HUSA0022
010079,HUSA0023
010169,HUSA0024
010149,HUSA0025
010023,HUSA0026
010103,HUSA0027
010058,HUSA0028
01014F,HUSA0029
010139,HUSA0030
010112,HUSA0031
010110,HUSA0032
010018,HUSA0033
010022,HUSA0034
011304,HUSA0035
010101,HUSA0036
010073,HUSA0037
010034,HUSA0038
010164,HUSA0039
010008,HUSA0040
010131,HUSA0041
010035,HUSA0042
010092,HUSA0043
010099,HUSA0044
010021,HUSA0045
010085,HUSA0046
010012,HUSA0047
010029,HUSA0048
010006,HUSA0049
010097,HUSA0050
010148,HUSA0051
010045,HUSA0052
010055,HUSA0053
010040,HUSA0054
010047,HUSA0055
010051,HUSA0056
010091,HUSA0057
010095,HUSA0058
010019,HUSA0059
010061,HUSA0060
010138,HUSA0061
010039,HUSA0062
010102,HUSA0063
010168,HUSA0064
010024,HUSA0065
010128,HUSA0066
010150,HUSA0067
010052,HUSA0068
010125,HUSA0069
010059,HUSA0070
010044,HUSA0071
010005,HUSA0072
010069,HUSA0073
010049,HUSA0074
010114,HUSA0075
010007,HUSA0076
010113,HUSA0077
010120,HUSA0078
010129,HUSA0079
010078,HUSA0080
010086,HUSA0081
010109,HUSA0082
010108,HUSA0083
010090,HUSA0084
011302,HUSA0085
010046,HUSA0086
010146,HUSA0087
010065,HUSA0088
010158,HUSA0089
010016,HUSA0090
010157,HUSA0091
010083,HUSA0092
010001,HUSA0093
010144,HUSA0094
010056,HUSA0095
010011,HUSA0096
010130,HUSA0097
011305,HUSA0098
010038,HUSA0099
010100,HUSA0100
010104,HUSA0101
010126,HUSA0102
01021F,HUSA0103
010033,HUSA0104
013301,HUSA0105
010087,HUSA0106
01019F,HUSA0107
010118,HUSA0108
010089,HUSA0109
011300,HUSA0110
010032,HUSA0111
010062,HUSA0112
,HUSA0113
040134,HUSA0114
040039,HUSA0115
040147,HUSA0116
041323,HUSA0117
041312,HUSA0118
040036,HUSA0119
041321,HUSA0120
040076,HUSA0121
040114,HUSA0122
040072,HUSA0123
040027,HUSA0124
041327,HUSA0125
040011,HUSA0126
041324,HUSA0127
040026,HUSA0128
040007,HUSA0129
041328,HUSA0130
041306,HUSA0131
040029,HUSA0132
041307,HUSA0133
041317,HUSA0134
041319,HUSA0135
041326,HUSA0136
041314,HUSA0137
040051,HUSA0138
041304,HUSA0139
04009F,HUSA0140
040047,HUSA0141
040019,HUSA0142
041322,HUSA0143
040069,HUSA0144
040085,HUSA0145
041311,HUSA0146
040071,HUSA0147
040002,HUSA0148
041309,HUSA0149
040132,HUSA0150
041320,HUSA0151
040067,HUSA0152
041308,HUSA0153
040088,HUSA0154
040015,HUSA0155
041329,HUSA0156
041318,HUSA0157
040010,HUSA0158
041303,HUSA0159
040078,HUSA0160
040118,HUSA0161
040017,HUSA0162
041300,HUSA0163
040074,HUSA0164
040022,HUSA0165
040050,HUSA0166
041313,HUSA0167
041331,HUSA0168
040152,HUSA0169
041330,HUSA0170
041302,HUSA0171
040084,HUSA0172
040001,HUSA0173
041316,HUSA0174
040018,HUSA0175
040055,HUSA0176
040020,HUSA0177
041305,HUSA0178
040062,HUSA0179
040041,HUSA0180
040137,HUSA0181
041310,HUSA0182
040016,HUSA0183
040080,HUSA0184
04010F,HUSA0185
040153,HUSA0186
040004,HUSA0187
040014,HUSA0188
040119,HUSA0189
640001,HUSA0190
030094,HUSA0191
030030,HUSA0192
030001,HUSA0193
030083,HUSA0194
030110,HUSA0195
030112,HUSA0196
030107,HUSA0197
030002,HUSA0198
030088,HUSA0199
030061,HUSA0200
030016,HUSA0201
030093,HUSA0202
030065,HUSA0203
030115,HUSA0204
030122,HUSA0205
030134,HUSA0206
030105,HUSA0207
030130,HUSA0208
030033,HUSA0209
030089,HUSA0210
030111,HUSA0211
030064,HUSA0212
031301,HUSA0213
030043,HUSA0214
030036,HUSA0215
030084,HUSA0216
031314,HUSA0217
031303,HUSA0218
031312,HUSA0219
030108,HUSA0220
030136,HUSA0221
030023,HUSA0222
030132,HUSA0223
030071,HUSA0224
030120,HUSA0225
030069,HUSA0226
031313,HUSA0227
030092,HUSA0228
031305,HUSA0229
030014,HUSA0230
030055,HUSA0231
031317,HUSA0232
031311,HUSA0233
030022,HUSA0234
030103,HUSA0235
030119,HUSA0236
030121,HUSA0237
030068,HUSA0238
031302,HUSA0239
030085,HUSA0240
030131,HUSA0241
030114,HUSA0242
031304,HUSA0243
033302,HUSA0244
030078,HUSA0245
03012F,HUSA0246
031309,HUSA0247
030077,HUSA0248
030038,HUSA0249
030087,HUSA0250
030123,HUSA0251
030074,HUSA0252
030011,HUSA0253
030024,HUSA0254
030037,HUSA0255
030010,HUSA0256
030062,HUSA0257
030073,HUSA0258
030006,HUSA0259
03033F,HUSA0260
03013F,HUSA0261
030117,HUSA0262
030007,HUSA0263
030101,HUSA0264
031315,HUSA0265
030113,HUSA0266
031300,HUSA0267
030012,HUSA0268
030118,HUSA0269
030013,HUSA0270
050121,HUSA0271
050192,HUSA0272
050226,HUSA0273
050211,HUSA0274
050281,HUSA0275
050043,HUSA0276
050305,HUSA0277
050757,HUSA0278
050744,HUSA0279
050056,HUSA0280
050245,HUSA0281
050724,HUSA0282
050036,HUSA0283
051320,HUSA0284
050298,HUSA0285
050352,HUSA0286
051335,HUSA0287
050350,HUSA0288
050149,HUSA0289
050055,HUSA0290
050008,HUSA0291
050047,HUSA0292
051307,HUSA0293
050625,HUSA0294
050739,HUSA0295
050196,HUSA0296
050745,HUSA0297
053302,HUSA0298
050407,HUSA0299
050586,HUSA0300
050382,HUSA0301
050492,HUSA0302
050397,HUSA0303
050771,HUSA0304
050543,HUSA0305
050776,HUSA0306
051323,HUSA0307
050434,HUSA0308
050091,HUSA0309
050727,HUSA0310
050089,HUSA0311
050145,HUSA0312
050394,HUSA0313
050060,HUSA0314
050276,HUSA0315
050329,HUSA0316
050122,HUSA0317
050608,HUSA0318
050243,HUSA0319
050709,HUSA0320
050118,HUSA0321
050096,HUSA0322
050464,HUSA0323
050242,HUSA0324
050641,HUSA0325
051300,HUSA0326
050488,HUSA0327
050573,HUSA0328
050308,HUSA0329
050045,HUSA0330
050179,HUSA0331
050158,HUSA0332
050039,HUSA0333
051316,HUSA0334
050548,HUSA0335
050435,HUSA0336
050225,HUSA0337
050597,HUSA0338
050570,HUSA0339
051310,HUSA0340
050232,HUSA0341
050732,HUSA0342
050708,HUSA0343
05025F,HUSA0344
050232,HUSA0345
050732,HUSA0346
050708,HUSA0347
05025F,HUSA0348
050239,HUSA0349
050058,HUSA0350
050205,HUSA0351
051306,HUSA0352
050357,HUSA0353
050257,HUSA0354
050380,HUSA0355
050471,HUSA0356
050738,HUSA0357
050026,HUSA0358
050296,HUSA0359
051321,HUSA0360
050390,HUSA0361
050624,HUSA0362
050279,HUSA0363
050320,HUSA0364
050224,HUSA0365
050769,HUSA0366
050063,HUSA0367
050526,HUSA0368
050438,HUSA0369
051309,HUSA0370
051304,HUSA0371
050534,HUSA0372
050496,HUSA0373
050180,HUSA0374
050674,HUSA0375
050510,HUSA0376
050760,HUSA0377
050723,HUSA0378
050139,HUSA0379
050512,HUSA0380
050710,HUSA0381
050138,HUSA0382
050075,HUSA0383
050609,HUSA0384
050137,HUSA0385
050541,HUSA0386
050772,HUSA0387
050425,HUSA0388
050515,HUSA0389
050076,HUSA0390
050777,HUSA0391
050411,HUSA0392
050070,HUSA0393
050767,HUSA0394
050072,HUSA0395
050561,HUSA0396
050677,HUSA0397
050073,HUSA0398
050140,HUSA0399
050748,HUSA0400
050765,HUSA0401
050604,HUSA0402
050071,HUSA0403
050690,HUSA0404
050686,HUSA0405
050057,HUSA0406
050696,HUSA0407
050315,HUSA0408
051314,HUSA0409
050580,HUSA0410
050376,HUSA0411
050040,HUSA0412
050717,HUSA0413
050373,HUSA0414
050668,HUSA0415
050581,HUSA0416
050545,HUSA0417
050336,HUSA0418
050778,HUSA0419
050327,HUSA0420
050770,HUSA0421
05127F,HUSA0422
050110,HUSA0423
050485,HUSA0424
050551,HUSA0425
050663,HUSA0426
050549,HUSA0427
,HUSA0428
050028,HUSA0429
050568,HUSA0430
051303,HUSA0431
050107,HUSA0432
050360,HUSA0433
050740,HUSA0434
051332,HUSA0435
050254,HUSA0436
051305,HUSA0437
050528,HUSA0438
050468,HUSA0439
050557,HUSA0440
051325,HUSA0441
050684,HUSA0442
050754,HUSA0443
050017,HUSA0444
050295,HUSA0445
050414,HUSA0446
050444,HUSA0447
051319,HUSA0448
050280,HUSA0449
050516,HUSA0450
050590,HUSA0451
050238,HUSA0452
,HUSA0453
050007,HUSA0454
050751,HUSA0455
050704,HUSA0456
050567,HUSA0457
051330,HUSA0458
050758,HUSA0459
050736,HUSA0460
050552,HUSA0461
051312,HUSA0462
050248,HUSA0463
050367,HUSA0464
051324,HUSA0465
050116,HUSA0466
050131,HUSA0467
050153,HUSA0468
050067,HUSA0469
051334,HUSA0470
050742,HUSA0471
050678,HUSA0472
050746,HUSA0473
051311,HUSA0474
050030,HUSA0475
050018,HUSA0476
050378,HUSA0477
050204,HUSA0478
05031F,HUSA0479
050423,HUSA0480
050115,HUSA0481
050024,HUSA0482
050102,HUSA0483
050697,HUSA0484
050136,HUSA0485
050393,HUSA0486
050342,HUSA0487
050589,HUSA0488
051326,HUSA0489
050636,HUSA0490
050231,HUSA0491
050546,HUSA0492
050169,HUSA0493
050278,HUSA0494
050078,HUSA0495
050353,HUSA0496
050290,HUSA0497
050235,HUSA0498
050761,HUSA0499
050009,HUSA0500
050272,HUSA0501
051318,HUSA0502
050125,HUSA0503
050133,HUSA0504
050022,HUSA0505
050292,HUSA0506
050262,HUSA0507
050603,HUSA0508
050093,HUSA0509
050104,HUSA0510
050152,HUSA0511
050688,HUSA0512
050502,HUSA0513
050334,HUSA0514
050099,HUSA0515
050588,HUSA0516
050228,HUSA0517
05130F,HUSA0518
050132,HUSA0519
050054,HUSA0520
050455,HUSA0521
050167,HUSA0522
050773,HUSA0523
050113,HUSA0524
050689,HUSA0525
050396,HUSA0526
050038,HUSA0527
050112,HUSA0528
050174,HUSA0529
051331,HUSA0530
050424,HUSA0531
050503,HUSA0532
050324,HUSA0533
050077,HUSA0534
051327,HUSA0535
050197,HUSA0536
050289,HUSA0537
050222,HUSA0538
050234,HUSA0539
050100,HUSA0540
050764,HUSA0541
050755,HUSA0542
050150,HUSA0543
050261,HUSA0544
050506,HUSA0545
050763,HUSA0546
050236,HUSA0547
050547,HUSA0548
050090,HUSA0549
050335,HUSA0550
050747,HUSA0551
050135,HUSA0552
051302,HUSA0553
050701,HUSA0554
050129,HUSA0555
050042,HUSA0556
050013,HUSA0557
051317,HUSA0558
050616,HUSA0559
050082,HUSA0560
050006,HUSA0561
050069,HUSA0562
050084,HUSA0563
050168,HUSA0564
050191,HUSA0565
050300,HUSA0566
050457,HUSA0567
050002,HUSA0568
050441,HUSA0569
050726,HUSA0570
051308,HUSA0571
050014,HUSA0572
050498,HUSA0573
050417,HUSA0574
050537,HUSA0575
050523,HUSA0576
051329,HUSA0577
050714,HUSA0578
050108,HUSA0579
050309,HUSA0580
050291,HUSA0581
050101,HUSA0582
050766,HUSA0583
050313,HUSA0584
051328,HUSA0585
051301,HUSA0586
050775,HUSA0587
050351,HUSA0588
050128,HUSA0589
051315,HUSA0590
050359,HUSA0591
050633,HUSA0592
050454,HUSA0593
050301,HUSA0594
,HUSA0595
050348,HUSA0596
050025,HUSA0597
050124,HUSA0598
05128F,HUSA0599
05027F,HUSA0600
05030F,HUSA0601
05114F,HUSA0602
050126,HUSA0603
050283,HUSA0604
050159,HUSA0605
050517,HUSA0606
050195,HUSA0607
050194,HUSA0608
050426,HUSA0609
050481,HUSA0610
050103,HUSA0611
050735,HUSA0612
050127,HUSA0613
060117,HUSA0614
060036,HUSA0615
061324,HUSA0616
060027,HUSA0617
060125,HUSA0618
060103,HUSA0619
060113,HUSA0620
060031,HUSA0621
060064,HUSA0622
060015,HUSA0623
060012,HUSA0624
060016,HUSA0625
,HUSA0626
061302,HUSA0627
060044,HUSA0628
,HUSA0629
060071,HUSA0630
060011,HUSA0631
061303,HUSA0632
061312,HUSA0633
060116,HUSA0634
06007F,HUSA0635
061317,HUSA0636
061320,HUSA0637
061304,HUSA0638
061322,HUSA0639
060043,HUSA0640
061313,HUSA0641
061306,HUSA0642
060003,HUSA0643
060009,HUSA0644
060030,HUSA0645
060100,HUSA0646
060119,HUSA0647
061305,HUSA0648
061314,HUSA0649
060013,HUSA0650
061318,HUSA0651
060006,HUSA0652
061321,HUSA0653
060107,HUSA0654
060001,HUSA0655
060065,HUSA0656
060124,HUSA0657
061328,HUSA0658
060114,HUSA0659
060020,HUSA0660
061326,HUSA0661
061325,HUSA0662
060004,HUSA0663
060010,HUSA0664
060014,HUSA0665
061323,HUSA0666
061307,HUSA0667
061301,HUSA0668
060032,HUSA0669
060028,HUSA0670
060008,HUSA0671
061308,HUSA0672
061310,HUSA0673
060112,HUSA0674
061311,HUSA0675
061327,HUSA0676
061316,HUSA0677
060104,HUSA0678
060118,HUSA0679
060023,HUSA0680
061319,HUSA0681
060076,HUSA0682
060034,HUSA0683
060022,HUSA0684
060024,HUSA0685
06005F,HUSA0686
060096,HUSA0687
060075,HUSA0688
061300,HUSA0689
061309,HUSA0690
060049,HUSA0691
061315,HUSA0692
070010,HUSA0693
070029,HUSA0694
070011,HUSA0695
,HUSA0696
070038,HUSA0697
070033,HUSA0698
070003,HUSA0699
070018,HUSA0700
070031,HUSA0701
070025,HUSA0702
070040,HUSA0703
070035,HUSA0704
070036,HUSA0705
070008,HUSA0706
070007,HUSA0707
070027,HUSA0708
070039,HUSA0709
070020,HUSA0710
070017,HUSA0711
070019,HUSA0712
070034,HUSA0713
070012,HUSA0714
070016,HUSA0715
070004,HUSA0716
070002,HUSA0717
070028,HUSA0718
070006,HUSA0719
070005,HUSA0720
07003F,HUSA0721
070024,HUSA0722
070021,HUSA0723
,HUSA0724
093300,HUSA0725
090001,HUSA0726
090003,HUSA0727
090004,HUSA0728
090011,HUSA0729
090006,HUSA0730
090005,HUSA0731
090008,HUSA0732
09002F,HUSA0733
080004,HUSA0734
080009,HUSA0735
080007,HUSA0736
080001,HUSA0737
080006,HUSA0738
080003,HUSA0739
08002F,HUSA0740
100240,HUSA0741
100131,HUSA0742
100093,HUSA0743
100008,HUSA0744
100117,HUSA0745
100140,HUSA0746
100088,HUSA0747
100121,HUSA0748
100026,HUSA0749
10009F,HUSA0750
100032,HUSA0751
100071,HUSA0752
100211,HUSA0753
100077,HUSA0754
100047,HUSA0755
100014,HUSA0756
100002,HUSA0757
100213,HUSA0758
100168,HUSA0759
100243,HUSA0760
100276,HUSA0761
100200,HUSA0762
100039,HUSA0763
100086,HUSA0764
101304,HUSA0765
101302,HUSA0766
100177,HUSA0767
100244,HUSA0768
100254,HUSA0769
100161,HUSA0770
100023,HUSA0771
100289,HUSA0772
100183,HUSA0773
100258,HUSA0774
100175,HUSA0775
100106,HUSA0776
100296,HUSA0777
100166,HUSA0778
101307,HUSA0779
100277,HUSA0780
100134,HUSA0781
100267,HUSA0782
100236,HUSA0783
101312,HUSA0784
100090,HUSA0785
100007,HUSA0786
100069,HUSA0787
100045,HUSA0788
100072,HUSA0789
100118,HUSA0790
100109,HUSA0791
100068,HUSA0792
100055,HUSA0793
100173,HUSA0794
100057,HUSA0795
101300,HUSA0796
100319,HUSA0797
100046,HUSA0798
100223,HUSA0799
101305,HUSA0800
100287,HUSA0801
100266,HUSA0802
100220,HUSA0803
100242,HUSA0804
100017,HUSA0805
100030,HUSA0806
100081,HUSA0807
100137,HUSA0808
101309,HUSA0809
100053,HUSA0810
100049,HUSA0811
100019,HUSA0812
100073,HUSA0813
100125,HUSA0814
100105,HUSA0815
100142,HUSA0816
100022,HUSA0817
100048,HUSA0818
100080,HUSA0819
100253,HUSA0820
100209,HUSA0821
101303,HUSA0822
100156,HUSA0823
100099,HUSA0824
100157,HUSA0825
100130,HUSA0826
100299,HUSA0827
100248,HUSA0828
100181,HUSA0829
100246,HUSA0830
100012,HUSA0831
100084,HUSA0832
100107,HUSA0833
100150,HUSA0834
101311,HUSA0835
100035,HUSA0836
101313,HUSA0837
100044,HUSA0838
100151,HUSA0839
100265,HUSA0840
100043,HUSA0841
100191,HUSA0842
100179,HUSA0843
100285,HUSA0844
100206,HUSA0845
100230,HUSA0846
100281,HUSA0847
100038,HUSA0848
10064F,HUSA0849
100127,HUSA0850
100063,HUSA0851
100034,HUSA0852
100062,HUSA0853
100018,HUSA0854
100204,HUSA0855
100122,HUSA0856
100029,HUSA0857
100238,HUSA0858
101308,HUSA0859
100189,HUSA0860
100264,HUSA0861
100212,HUSA0862
100226,HUSA0863
100006,HUSA0864
100110,HUSA0865
100316,HUSA0866
100176,HUSA0867
100050,HUSA0868
100187,HUSA0869
100126,HUSA0870
100269,HUSA0871
100028,HUSA0872
100286,HUSA0873
100167,HUSA0874
100320,HUSA0875
100232,HUSA0876
100252,HUSA0877
100322,HUSA0878
100256,HUSA0879
100025,HUSA0880
100292,HUSA0881
100313,HUSA0882
100124,HUSA0883
100087,HUSA0884
100217,HUSA0885
100249,HUSA0886
100102,HUSA0887
101301,HUSA0888
101310,HUSA0889
100259,HUSA0890
100132,HUSA0891
100051,HUSA0892
100154,HUSA0893
100067,HUSA0894
100302,HUSA0895
100075,HUSA0896
100260,HUSA0897
100288,HUSA0898
100180,HUSA0899
100040,HUSA0900
100307,HUSA0901
100321,HUSA0902
100135,HUSA0903
100255,HUSA0904
100128,HUSA0905
10063F,HUSA0906
100054,HUSA0907
100001,HUSA0908
,HUSA0909
100224,HUSA0910
100009,HUSA0911
10057F,HUSA0912
100070,HUSA0913
100315,HUSA0914
100290,HUSA0915
10065F,HUSA0916
100275,HUSA0917
100268,HUSA0918
100231,HUSA0919
100314,HUSA0920
100234,HUSA0921
100284,HUSA0922
100228,HUSA0923
100052,HUSA0924
100291,HUSA0925
100092,HUSA0926
110071,HUSA0927
110074,HUSA0928
110115,HUSA0929
11030F,HUSA0930
111327,HUSA0931
110045,HUSA0932
111302,HUSA0933
111332,HUSA0934
110113,HUSA0935
111334,HUSA0936
110024,HUSA0937
110030,HUSA0938
111324,HUSA0939
110187,HUSA0940
110046,HUSA0941
111308,HUSA0942
110089,HUSA0943
110164,HUSA0944
110201,HUSA0945
110105,HUSA0946
110101,HUSA0947
110104,HUSA0948
11029F,HUSA0949
110076,HUSA0950
110226,HUSA0951
110177,HUSA0952
110092,HUSA0953
110194,HUSA0954
110073,HUSA0955
11031F,HUSA0956
110075,HUSA0957
110192,HUSA0958
111306,HUSA0959
110026,HUSA0960
110109,HUSA0961
110230,HUSA0962
110010,HUSA0963
110078,HUSA0964
110142,HUSA0965
110125,HUSA0966
110189,HUSA0967
110190,HUSA0968
110054,HUSA0969
110023,HUSA0970
110121,HUSA0971
110079,HUSA0972
110087,HUSA0973
110041,HUSA0974
110001,HUSA0975
111320,HUSA0976
110069,HUSA0977
110004,HUSA0978
110130,HUSA0979
111303,HUSA0980
111333,HUSA0981
110100,HUSA0982
110038,HUSA0983
111335,HUSA0984
110091,HUSA0985
110003,HUSA0986
110128,HUSA0987
110107,HUSA0988
111310,HUSA0989
110034,HUSA0990
110036,HUSA0991
110132,HUSA0992
110064,HUSA0993
111305,HUSA0994
111331,HUSA0995
111318,HUSA0996
111304,HUSA0997
111336,HUSA0998
110050,HUSA0999
110018,HUSA1000
110198,HUSA1001
110205,HUSA1002
110029,HUSA1003
110040,HUSA1004
110161,HUSA1005
110008,HUSA1006
110005,HUSA1007
110200,HUSA1008
110150,HUSA1009
110153,HUSA1010
110007,HUSA1011
110044,HUSA1012
111328,HUSA1013
110215,HUSA1014
110191,HUSA1015
110083,HUSA1016
110225,HUSA1017
110229,HUSA1018
111314,HUSA1019
111330,HUSA1020
111313,HUSA1021
110168,HUSA1022
110082,HUSA1023
110234,HUSA1024
111326,HUSA1025
110122,HUSA1026
110025,HUSA1027
110146,HUSA1028
110233,HUSA1029
110165,HUSA1030
111300,HUSA1031
110031,HUSA1032
110129,HUSA1033
110043,HUSA1034
111329,HUSA1035
110006,HUSA1036
110027,HUSA1037
110032,HUSA1038
111319,HUSA1039
110011,HUSA1040
110015,HUSA1041
110135,HUSA1042
110095,HUSA1043
110039,HUSA1044
110209,HUSA1045
110051,HUSA1046
110028,HUSA1047
110111,HUSA1048
110002,HUSA1049
111316,HUSA1050
110086,HUSA1051
110124,HUSA1052
110143,HUSA1053
110184,HUSA1054
110035,HUSA1055
110042,HUSA1056
110016,HUSA1057
111325,HUSA1058
650001,HUSA1059
120006,HUSA1060
120005,HUSA1061
121304,HUSA1062
120011,HUSA1063
121301,HUSA1064
121300,HUSA1065
120019,HUSA1066
120007,HUSA1067
121308,HUSA1068
120002,HUSA1069
121303,HUSA1070
120028,HUSA1071
120026,HUSA1072
121306,HUSA1073
120001,HUSA1074
,HUSA1075
120004,HUSA1076
120014,HUSA1077
161310,HUSA1078
160110,HUSA1079
161330,HUSA1080
161351,HUSA1081
161300,HUSA1082
161372,HUSA1083
160101,HUSA1084
161335,HUSA1085
161375,HUSA1086
161359,HUSA1087
161376,HUSA1088
161319,HUSA1089
160001,HUSA1090
161362,HUSA1091
161304,HUSA1092
160028,HUSA1093
161309,HUSA1094
161352,HUSA1095
161348,HUSA1096
161320,HUSA1097
160067,HUSA1098
161369,HUSA1099
161322,HUSA1100
161327,HUSA1101
161340,HUSA1102
160117,HUSA1103
161347,HUSA1104
161368,HUSA1105
160122,HUSA1106
161308,HUSA1107
160033,HUSA1108
161313,HUSA1109
161324,HUSA1110
160057,HUSA1111
161365,HUSA1112
161325,HUSA1113
160147,HUSA1114
161303,HUSA1115
161314,HUSA1116
161312,HUSA1117
161307,HUSA1118
161380,HUSA1119
161311,HUSA1120
161336,HUSA1121
161356,HUSA1122
161354,HUSA1123
161334,HUSA1124
16004F,HUSA1125
160024,HUSA1126
160082,HUSA1127
161301,HUSA1128
161302,HUSA1129
161329,HUSA1130
161364,HUSA1131
161306,HUSA1132
160008,HUSA1133
161315,HUSA1134
161355,HUSA1135
161353,HUSA1136
160124,HUSA1137
161370,HUSA1138
161341,HUSA1139
161326,HUSA1140
161379,HUSA1141
161332,HUSA1142
161317,HUSA1143
160030,HUSA1144
160029,HUSA1145
161338,HUSA1146
160079,HUSA1147
161377,HUSA1148
160080,HUSA1149
160083,HUSA1150
160069,HUSA1151
161378,HUSA1152
161331,HUSA1153
160064,HUSA1154
160153,HUSA1155
160047,HUSA1156
161323,HUSA1157
161342,HUSA1158
161363,HUSA1159
161374,HUSA1160
161360,HUSA1161
161345,HUSA1162
160089,HUSA1163
161316,HUSA1164
161357,HUSA1165
161367,HUSA1166
161305,HUSA1167
161328,HUSA1168
161343,HUSA1169
161373,HUSA1170
161321,HUSA1171
161381,HUSA1172
160040,HUSA1173
161366,HUSA1174
161346,HUSA1175
160032,HUSA1176
160112,HUSA1177
160005,HUSA1178
160045,HUSA1179
160146,HUSA1180
161350,HUSA1181
161333,HUSA1182
160104,HUSA1183
160013,HUSA1184
160016,HUSA1185
160058,HUSA1186
16003F,HUSA1187
161337,HUSA1188
161361,HUSA1189
161318,HUSA1190
161349,HUSA1191
161344,HUSA1192
161339,HUSA1193
161358,HUSA1194
161371,HUSA1195
131316,HUSA1196
131317,HUSA1197
131325,HUSA1198
13003F,HUSA1199
131328,HUSA1200
131301,HUSA1201
131309,HUSA1202
131308,HUSA1203
131326,HUSA1204
131320,HUSA1205
130018,HUSA1206
131322,HUSA1207
131327,HUSA1208
131304,HUSA1209
130067,HUSA1210
130049,HUSA1211
131324,HUSA1212
130025,HUSA1213
131319,HUSA1214
130065,HUSA1215
131302,HUSA1216
130066,HUSA1217
131303,HUSA1218
130028,HUSA1219
130013,HUSA1220
131314,HUSA1221
130007,HUSA1222
130003,HUSA1223
131311,HUSA1224
131310,HUSA1225
130002,HUSA1226
131312,HUSA1227
130006,HUSA1228
131323,HUSA1229
131321,HUSA1230
131305,HUSA1231
131315,HUSA1232
131313,HUSA1233
130063,HUSA1234
131318,HUSA1235
131307,HUSA1236
130014,HUSA1237
141322,HUSA1238
140304,HUSA1239
140292,HUSA1240
140065,HUSA1241
140127,HUSA1242
140208,HUSA1243
140202,HUSA1244
141309,HUSA1245
140288,HUSA1246
140291,HUSA1247
140182,HUSA1248
140223,HUSA1249
140250,HUSA1250
140048,HUSA1251
140258,HUSA1252
140002,HUSA1253
140289,HUSA1254
140015,HUSA1255
141347,HUSA1256
140116,HUSA1257
140176,HUSA1258
140242,HUSA1259
140043,HUSA1260
141351,HUSA1261
140251,HUSA1262
141306,HUSA1263
140029,HUSA1264
141343,HUSA1265
140294,HUSA1266
140135,HUSA1267
140211,HUSA1268
141303,HUSA1269
140231,HUSA1270
140200,HUSA1271
140010,HUSA1272
141311,HUSA1273
141346,HUSA1274
141324,HUSA1275
140160,HUSA1276
140172,HUSA1277
141321,HUSA1278
140040,HUSA1279
140125,HUSA1280
140275,HUSA1281
141304,HUSA1282
141317,HUSA1283
140046,HUSA1284
140001,HUSA1285
140137,HUSA1286
141326,HUSA1287
141319,HUSA1288
141328,HUSA1289
140210,HUSA1290
140184,HUSA1291
140011,HUSA1292
141332,HUSA1293
14007F,HUSA1294
140122,HUSA1295
140133,HUSA1296
141316,HUSA1297
141330,HUSA1298
141315,HUSA1299
140234,HUSA1300
140191,HUSA1301
140167,HUSA1302
140177,HUSA1303
140059,HUSA1304
14003F,HUSA1305
140124,HUSA1306
140012,HUSA1307
141301,HUSA1308
140286,HUSA1309
141344,HUSA1310
140179,HUSA1311
140083,HUSA1312
140082,HUSA1313
140008,HUSA1314
140276,HUSA1315
140054,HUSA1316
14008F,HUSA1317
141331,HUSA1318
141313,HUSA1319
141323,HUSA1320
140089,HUSA1321
140185,HUSA1322
141338,HUSA1323
141305,HUSA1324
140164,HUSA1325
140148,HUSA1326
141335,HUSA1327
140158,HUSA1328
140197,HUSA1329
140209,HUSA1330
140118,HUSA1331
141302,HUSA1332
140100,HUSA1333
140101,HUSA1334
141329,HUSA1335
140018,HUSA1336
14034F,HUSA1337
140252,HUSA1338
140130,HUSA1339
140281,HUSA1340
140206,HUSA1341
141318,HUSA1342
140052,HUSA1343
141325,HUSA1344
141310,HUSA1345
140110,HUSA1346
140062,HUSA1347
141341,HUSA1348
141320,HUSA1349
140058,HUSA1350
140120,HUSA1351
141337,HUSA1352
141307,HUSA1353
140113,HUSA1354
140174,HUSA1355
140117,HUSA1356
140080,HUSA1357
140224,HUSA1358
140217,HUSA1359
140007,HUSA1360
140180,HUSA1361
140155,HUSA1362
140093,HUSA1363
140013,HUSA1364
140300,HUSA1365
141348,HUSA1366
140147,HUSA1367
140186,HUSA1368
141312,HUSA1369
140239,HUSA1370
140068,HUSA1371
140063,HUSA1372
,HUSA1373
140095,HUSA1374
140233,HUSA1375
140067,HUSA1376
140161,HUSA1377
141345,HUSA1378
140189,HUSA1379
141333,HUSA1380
140019,HUSA1381
140030,HUSA1382
140213,HUSA1383
140181,HUSA1384
141349,HUSA1385
140034,HUSA1386
140290,HUSA1387
140032,HUSA1388
140103,HUSA1389
140187,HUSA1390
141350,HUSA1391
140053,HUSA1392
140162,HUSA1393
141334,HUSA1394
141336,HUSA1395
140145,HUSA1396
140143,HUSA1397
140064,HUSA1398
140026,HUSA1399
140166,HUSA1400
140228,HUSA1401
140114,HUSA1402
141339,HUSA1403
140091,HUSA1404
140088,HUSA1405
141300,HUSA1406
140115,HUSA1407
140077,HUSA1408
140280,HUSA1409
141342,HUSA1410
140150,HUSA1411
14004F,HUSA1412
141340,HUSA1413
140084,HUSA1414
140033,HUSA1415
141327,HUSA1416
140049,HUSA1417
140240,HUSA1418
151330,HUSA1419
150075,HUSA1420
151315,HUSA1421
150009,HUSA1422
150112,HUSA1423
150125,HUSA1424
150074,HUSA1425
150169,HUSA1426
150113,HUSA1427
151300,HUSA1428
150128,HUSA1429
150007,HUSA1430
150129,HUSA1431
150061,HUSA1432
150082,HUSA1433
150086,HUSA1434
151332,HUSA1435
150045,HUSA1436
151318,HUSA1437
150150,HUSA1438
150018,HUSA1439
150024,HUSA1440
150179,HUSA1441
150064,HUSA1442
150044,HUSA1443
150165,HUSA1444
151324,HUSA1445
150126,HUSA1446
150015,HUSA1447
150022,HUSA1448
150109,HUSA1449
150182,HUSA1450
150162,HUSA1451
150057,HUSA1452
150090,HUSA1453
150004,HUSA1454
151319,HUSA1455
150042,HUSA1456
151317,HUSA1457
150037,HUSA1458
151331,HUSA1459
150005,HUSA1460
150030,HUSA1461
150056,HUSA1462
150173,HUSA1463
150089,HUSA1464
151328,HUSA1465
151302,HUSA1466
150051,HUSA1467
150006,HUSA1468
150038,HUSA1469
150161,HUSA1470
151306,HUSA1471
150102,HUSA1472
151311,HUSA1473
151312,HUSA1474
15003F,HUSA1475
150026,HUSA1476
150158,HUSA1477
151320,HUSA1478
150001,HUSA1479
150176,HUSA1480
150069,HUSA1481
150133,HUSA1482
150017,HUSA1483
150097,HUSA1484
151329,HUSA1485
150011,HUSA1486
150072,HUSA1487
150115,HUSA1488
150058,HUSA1489
150002,HUSA1490
150164,HUSA1491
150160,HUSA1492
150167,HUSA1493
150091,HUSA1494
151323,HUSA1495
150146,HUSA1496
150021,HUSA1497
151310,HUSA1498
150101,HUSA1499
151322,HUSA1500
150172,HUSA1501
150166,HUSA1502
150035,HUSA1503
151305,HUSA1504
151333,HUSA1505
150048,HUSA1506
150059,HUSA1507
151304,HUSA1508
150012,HUSA1509
150076,HUSA1510
150065,HUSA1511
151334,HUSA1512
150008,HUSA1513
150047,HUSA1514
150034,HUSA1515
150100,HUSA1516
151325,HUSA1517
150088,HUSA1518
150157,HUSA1519
151309,HUSA1520
151335,HUSA1521
150181,HUSA1522
151316,HUSA1523
150153,HUSA1524
150084,HUSA1525
151303,HUSA1526
150010,HUSA1527
151308,HUSA1528
151301,HUSA1529
151314,HUSA1530
151307,HUSA1531
151327,HUSA1532
150046,HUSA1533
150175,HUSA1534
150168,HUSA1535
151326,HUSA1536
150023,HUSA1537
150177,HUSA1538
15004F,HUSA1539
150104,HUSA1540
150149,HUSA1541
151313,HUSA1542
171373,HUSA1543
170198,HUSA1544
17006F,HUSA1545
171316,HUSA1546
171346,HUSA1547
171304,HUSA1548
171382,HUSA1549
170110,HUSA1550
171310,HUSA1551
173300,HUSA1552
171362,HUSA1553
171333,HUSA1554
171371,HUSA1555
171349,HUSA1556
170094,HUSA1557
170145,HUSA1558
171354,HUSA1559
171363,HUSA1560
171317,HUSA1561
171301,HUSA1562
171327,HUSA1563
171374,HUSA1564
171314,HUSA1565
170074,HUSA1566
171376,HUSA1567
171370,HUSA1568
171367,HUSA1569
171325,HUSA1570
170191,HUSA1571
171359,HUSA1572
171339,HUSA1573
171300,HUSA1574
171322,HUSA1575
171366,HUSA1576
170013,HUSA1577
171340,HUSA1578
171341,HUSA1579
171357,HUSA1580
171369,HUSA1581
171319,HUSA1582
171320,HUSA1583
171330,HUSA1584
170020,HUSA1585
,HUSA1586
170188,HUSA1587
170186,HUSA1588
170197,HUSA1589
170196,HUSA1590
170183,HUSA1591
171313,HUSA1592
171378,HUSA1593
171331,HUSA1594
170120,HUSA1595
,HUSA1596
170137,HUSA1597
171360,HUSA1598
171358,HUSA1599
,HUSA1600
170190,HUSA1601
170105,HUSA1602
171321,HUSA1603
171334,HUSA1604
171381,HUSA1605
170182,HUSA1606
,HUSA1607
170075,HUSA1608
171308,HUSA1609
170010,HUSA1610
170058,HUSA1611
170109,HUSA1612
171375,HUSA1613
171379,HUSA1614
170166,HUSA1615
171315,HUSA1616
171380,HUSA1617
171336,HUSA1618
171384,HUSA1619
170103,HUSA1620
171348,HUSA1621
170049,HUSA1622
171364,HUSA1623
171302,HUSA1624
171328,HUSA1625
170176,HUSA1626
171345,HUSA1627
171353,HUSA1628
170027,HUSA1629
170203,HUSA1630
170146,HUSA1631
170014,HUSA1632
171307,HUSA1633
171361,HUSA1634
171311,HUSA1635
171342,HUSA1636
171350,HUSA1637
171338,HUSA1638
170009,HUSA1639
170133,HUSA1640
170185,HUSA1641
170012,HUSA1642
170187,HUSA1643
171324,HUSA1644
171372,HUSA1645
171318,HUSA1646
170104,HUSA1647
171347,HUSA1648
171377,HUSA1649
170150,HUSA1650
170068,HUSA1651
170023,HUSA1652
170016,HUSA1653
171356,HUSA1654
171323,HUSA1655
171343,HUSA1656
171335,HUSA1657
170086,HUSA1658
170039,HUSA1659
170017,HUSA1660
171355,HUSA1661
170040,HUSA1662
170142,HUSA1663
170006,HUSA1664
170200,HUSA1665
170122,HUSA1666
171337,HUSA1667
171351,HUSA1668
170123,HUSA1669
170175,HUSA1670
171306,HUSA1671
17008F,HUSA1672
171383,HUSA1673
171344,HUSA1674
180080,HUSA1675
180138,HUSA1676
180103,HUSA1677
180130,HUSA1678
180093,HUSA1679
180104,HUSA1680
180049,HUSA1681
181308,HUSA1682
180046,HUSA1683
181319,HUSA1684
181322,HUSA1685
181310,HUSA1686
181309,HUSA1687
181314,HUSA1688
180092,HUSA1689
180106,HUSA1690
180095,HUSA1691
181317,HUSA1692
181315,HUSA1693
180048,HUSA1694
180025,HUSA1695
180053,HUSA1696
180127,HUSA1697
180101,HUSA1698
180124,HUSA1699
180012,HUSA1700
180050,HUSA1701
180079,HUSA1702
180029,HUSA1703
180005,HUSA1704
180116,HUSA1705
181325,HUSA1706
180051,HUSA1707
180016,HUSA1708
180040,HUSA1709
180139,HUSA1710
180009,HUSA1711
181328,HUSA1712
180132,HUSA1713
18007F,HUSA1714
180066,HUSA1715
18006F,HUSA1716
180102,HUSA1717
180043,HUSA1718
181301,HUSA1719
181327,HUSA1720
181316,HUSA1721
181331,HUSA1722
180019,HUSA1723
180056,HUSA1724
181306,HUSA1725
180020,HUSA1726
180105,HUSA1727
181307,HUSA1728
180027,HUSA1729
180088,HUSA1730
181323,HUSA1731
180036,HUSA1732
180004,HUSA1733
180038,HUSA1734
180078,HUSA1735
180044,HUSA1736
180021,HUSA1737
180115,HUSA1738
181330,HUSA1739
181329,HUSA1740
180143,HUSA1741
180010,HUSA1742
180011,HUSA1743
181305,HUSA1744
180064,HUSA1745
180024,HUSA1746
180018,HUSA1747
180045,HUSA1748
180001,HUSA1749
181311,HUSA1750
180035,HUSA1751
180017,HUSA1752
180087,HUSA1753
181302,HUSA1754
180013,HUSA1755
181318,HUSA1756
181324,HUSA1757
180128,HUSA1758
,HUSA1759
181304,HUSA1760
180069,HUSA1761
180070,HUSA1762
180067,HUSA1763
180141,HUSA1764
181321,HUSA1765
180002,HUSA1766
190034,HUSA1767
191322,HUSA1768
190044,HUSA1769
191319,HUSA1770
19043F,HUSA1771
190133,HUSA1772
190099,HUSA1773
190050,HUSA1774
191320,HUSA1775
190164,HUSA1776
190190,HUSA1777
190298,HUSA1778
191312,HUSA1779
190041,HUSA1780
190019,HUSA1781
190027,HUSA1782
190184,HUSA1783
190114,HUSA1784
190303,HUSA1785
190003,HUSA1786
190118,HUSA1787
190297,HUSA1788
190146,HUSA1789
190267,HUSA1790
191310,HUSA1791
190140,HUSA1792
190160,HUSA1793
190257,HUSA1794
191315,HUSA1795
190263,HUSA1796
191309,HUSA1797
190054,HUSA1798
191317,HUSA1799
190053,HUSA1800
191325,HUSA1801
190002,HUSA1802
190268,HUSA1803
190259,HUSA1804
190201,HUSA1805
190060,HUSA1806
190177,HUSA1807
191321,HUSA1808
190020,HUSA1809
190145,HUSA1810
190183,HUSA1811
190250,HUSA1812
190167,HUSA1813
190144,HUSA1814
190245,HUSA1815
190116,HUSA1816
190007,HUSA1817
190313,HUSA1818
191304,HUSA1819
190015,HUSA1820
190086,HUSA1821
190106,HUSA1822
190036,HUSA1823
190202,HUSA1824
190204,HUSA1825
190274,HUSA1826
191324,HUSA1827
190017,HUSA1828
190261,HUSA1829
190102,HUSA1830
190312,HUSA1831
,HUSA1832
19048F,HUSA1833
190246,HUSA1834
190255,HUSA1835
190241,HUSA1836
191316,HUSA1837
190026,HUSA1838
191326,HUSA1839
190151,HUSA1840
191323,HUSA1841
191318,HUSA1842
191313,HUSA1843
190218,HUSA1844
190025,HUSA1845
190040,HUSA1846
190270,HUSA1847
190278,HUSA1848
190088,HUSA1849
190308,HUSA1850
190079,HUSA1851
190300,HUSA1852
190242,HUSA1853
190125,HUSA1854
191300,HUSA1855
191302,HUSA1856
190045,HUSA1857
190256,HUSA1858
190251,HUSA1859
190014,HUSA1860
190008,HUSA1861
190266,HUSA1862
190004,HUSA1863
190046,HUSA1864
190176,HUSA1865
191301,HUSA1866
190011,HUSA1867
190098,HUSA1868
190006,HUSA1869
190199,HUSA1870
190013,HUSA1871
190081,HUSA1872
191306,HUSA1873
190039,HUSA1874
190236,HUSA1875
190111,HUSA1876
190090,HUSA1877
190128,HUSA1878
220062,HUSA1879
220029,HUSA1880
221303,HUSA1881
220016,HUSA1882
220050,HUSA1883
220077,HUSA1884
220030,HUSA1885
22001F,HUSA1886
220046,HUSA1887
220083,HUSA1888
220060,HUSA1889
220108,HUSA1890
220086,HUSA1891
220033,HUSA1892
223302,HUSA1893
220031,HUSA1894
220119,HUSA1895
220110,HUSA1896
220011,HUSA1897
220012,HUSA1898
220017,HUSA1899
220058,HUSA1900
220015,HUSA1901
,HUSA1902
220084,HUSA1903
221302,HUSA1904
220135,HUSA1905
220111,HUSA1906
220070,HUSA1907
220019,HUSA1908
220001,HUSA1909
220095,HUSA1910
220080,HUSA1911
220024,HUSA1912
,HUSA1913
,HUSA1914
,HUSA1915
220171,HUSA1916
220010,HUSA1917
220063,HUSA1918
220049,HUSA1919
221300,HUSA1920
220075,HUSA1921
220071,HUSA1922
,HUSA1923
220066,HUSA1924
220175,HUSA1925
220090,HUSA1926
220073,HUSA1927
220002,HUSA1928
220177,HUSA1929
220098,HUSA1930
220088,HUSA1931
220101,HUSA1932
220035,HUSA1933
,HUSA1934
22009F,HUSA1935
220126,HUSA1936
220020,HUSA1937
220052,HUSA1938
220100,HUSA1939
220074,HUSA1940
220036,HUSA1941
220176,HUSA1942
220008,HUSA1943
220116,HUSA1944
220163,HUSA1945
,HUSA1946
,HUSA1947
22010F,HUSA1948
220105,HUSA1949
210057,HUSA1950
210016,HUSA1951
210023,HUSA1952
210061,HUSA1953
210013,HUSA1954
210039,HUSA1955
210033,HUSA1956
210051,HUSA1957
210045,HUSA1958
210060,HUSA1959
210005,HUSA1960
210017,HUSA1961
210044,HUSA1962
210065,HUSA1963
210004,HUSA1964
210048,HUSA1965
210029,HUSA1966
210009,HUSA1967
210055,HUSA1968
210064,HUSA1969
210015,HUSA1970
210056,HUSA1971
210034,HUSA1972
210018,HUSA1973
210028,HUSA1974
210062,HUSA1975
210024,HUSA1976
210008,HUSA1977
210001,HUSA1978
210040,HUSA1979
210019,HUSA1980
210003,HUSA1981
210011,HUSA1982
210012,HUSA1983
210022,HUSA1984
210032,HUSA1985
210058,HUSA1986
210049,HUSA1987
210006,HUSA1988
210002,HUSA1989
210063,HUSA1990
210043,HUSA1991
210035,HUSA1992
210038,HUSA1993
210037,HUSA1994
210030,HUSA1995
21020F,HUSA1996
210027,HUSA1997
200018,HUSA1998
201300,HUSA1999
201310,HUSA2000
201305,HUSA2001
200031,HUSA2002
200024,HUSA2003
201301,HUSA2004
201311,HUSA2005
200033,HUSA2006
200037,HUSA2007
201308,HUSA2008
200041,HUSA2009
200050,HUSA2010
200009,HUSA2011
200039,HUSA2012
201309,HUSA2013
200008,HUSA2014
200021,HUSA2015
201307,HUSA2016
201304,HUSA2017
200052,HUSA2018
200025,HUSA2019
200063,HUSA2020
201303,HUSA2021
201314,HUSA2022
201306,HUSA2023
201313,HUSA2024
200019,HUSA2025
201302,HUSA2026
200001,HUSA2027
200034,HUSA2028
201315,HUSA2029
20003F,HUSA2030
201312,HUSA2031
200020,HUSA2032
231328,HUSA2033
230092,HUSA2034
230036,HUSA2035
231333,HUSA2036
231318,HUSA2037
231319,HUSA2038
231309,HUSA2039
231307,HUSA2040
23012F,HUSA2041
230020,HUSA2042
230151,HUSA2043
230270,HUSA2044
230176,HUSA2045
230142,HUSA2046
230089,HUSA2047
230130,HUSA2048
230269,HUSA2049
231321,HUSA2050
230117,HUSA2051
231315,HUSA2052
230279,HUSA2053
230075,HUSA2054
231332,HUSA2055
230017,HUSA2056
231329,HUSA2057
231322,HUSA2058
233300,HUSA2059
230239,HUSA2060
230022,HUSA2061
230070,HUSA2062
230254,HUSA2063
231311,HUSA2064
23037F,HUSA2065
230273,HUSA2066
230055,HUSA2067
230013,HUSA2068
231324,HUSA2069
230230,HUSA2070
230144,HUSA2071
230244,HUSA2072
230197,HUSA2073
231313,HUSA2074
230104,HUSA2075
231327,HUSA2076
230275,HUSA2077
231304,HUSA2078
230053,HUSA2079
230047,HUSA2080
230302,HUSA2081
230146,HUSA2082
231316,HUSA2083
230037,HUSA2084
230072,HUSA2085
230132,HUSA2086
230118,HUSA2087
230277,HUSA2088
23005F,HUSA2089
231301,HUSA2090
230297,HUSA2091
230031,HUSA2092
230078,HUSA2093
230021,HUSA2094
231306,HUSA2095
231330,HUSA2096
230054,HUSA2097
231314,HUSA2098
230105,HUSA2099
230041,HUSA2100
230080,HUSA2101
230141,HUSA2102
230167,HUSA2103
230193,HUSA2104
230227,HUSA2105
230207,HUSA2106
230121,HUSA2107
231320,HUSA2108
230004,HUSA2109
230066,HUSA2110
230236,HUSA2111
230180,HUSA2112
231325,HUSA2113
230030,HUSA2114
230222,HUSA2115
231308,HUSA2116
230081,HUSA2117
230058,HUSA2118
230097,HUSA2119
230174,HUSA2120
230301,HUSA2121
230217,HUSA2122
230133,HUSA2123
231300,HUSA2124
230216,HUSA2125
230005,HUSA2126
231334,HUSA2127
230099,HUSA2128
230019,HUSA2129
23009F,HUSA2130
230069,HUSA2131
230059,HUSA2132
231305,HUSA2133
231310,HUSA2134
231303,HUSA2135
231312,HUSA2136
230024,HUSA2137
230085,HUSA2138
230264,HUSA2139
230208,HUSA2140
231326,HUSA2141
231331,HUSA2142
230038,HUSA2143
230093,HUSA2144
231338,HUSA2145
231317,HUSA2146
230110,HUSA2147
230040,HUSA2148
231323,HUSA2149
230035,HUSA2150
230003,HUSA2151
231337,HUSA2152
230165,HUSA2153
230195,HUSA2154
230241,HUSA2155
230259,HUSA2156
230156,HUSA2157
230029,HUSA2158
230002,HUSA2159
230077,HUSA2160
230071,HUSA2161
230096,HUSA2162
230100,HUSA2163
230015,HUSA2164
230046,HUSA2165
230108,HUSA2166
23011F,HUSA2167
230095,HUSA2168
230303,HUSA2169
240057,HUSA2170
241331,HUSA2171
241341,HUSA2172
241359,HUSA2173
241316,HUSA2174
240076,HUSA2175
240020,HUSA2176
241358,HUSA2177
241349,HUSA2178
241362,HUSA2179
241326,HUSA2180
241330,HUSA2181
241368,HUSA2182
243302,HUSA2183
241325,HUSA2184
241364,HUSA2185
241317,HUSA2186
241312,HUSA2187
241353,HUSA2188
241360,HUSA2189
240071,HUSA2190
240030,HUSA2191
241318,HUSA2192
241313,HUSA2193
240019,HUSA2194
241357,HUSA2195
241321,HUSA2196
241340,HUSA2197
241309,HUSA2198
240075,HUSA2199
240002,HUSA2200
240101,HUSA2201
240084,HUSA2202
240050,HUSA2203
240141,HUSA2204
240207,HUSA2205
240078,HUSA2206
241367,HUSA2207
241376,HUSA2208
241355,HUSA2209
240064,HUSA2210
240210,HUSA2211
240213,HUSA2212
241339,HUSA2213
,HUSA2214
240187,HUSA2215
241314,HUSA2216
241336,HUSA2217
240052,HUSA2218
241308,HUSA2219
240066,HUSA2220
241301,HUSA2221
241329,HUSA2222
241344,HUSA2223
241323,HUSA2224
241372,HUSA2225
241300,HUSA2226
240214,HUSA2227
240043,HUSA2228
241346,HUSA2229
240166,HUSA2230
241338,HUSA2231
240093,HUSA2232
241361,HUSA2233
241352,HUSA2234
241333,HUSA2235
241345,HUSA2236
240018,HUSA2237
240010,HUSA2238
241366,HUSA2239
240115,HUSA2240
241350,HUSA2241
241356,HUSA2242
24003F,HUSA2243
241375,HUSA2244
241343,HUSA2245
241319,HUSA2246
241378,HUSA2247
240001,HUSA2248
241337,HUSA2249
240014,HUSA2250
240006,HUSA2251
241342,HUSA2252
240069,HUSA2253
240053,HUSA2254
241373,HUSA2255
240196,HUSA2256
241374,HUSA2257
241379,HUSA2258
241322,HUSA2259
240206,HUSA2260
241351,HUSA2261
240059,HUSA2262
240106,HUSA2263
241306,HUSA2264
240088,HUSA2265
240056,HUSA2266
241311,HUSA2267
241334,HUSA2268
241320,HUSA2269
241305,HUSA2270
241328,HUSA2271
240100,HUSA2272
241347,HUSA2273
241315,HUSA2274
241371,HUSA2275
241381,HUSA2276
241304,HUSA2277
241303,HUSA2278
241302,HUSA2279
240022,HUSA2280
241327,HUSA2281
240036,HUSA2282
24002F,HUSA2283
241335,HUSA2284
241377,HUSA2285
240104,HUSA2286
241370,HUSA2287
240063,HUSA2288
241380,HUSA2289
240047,HUSA2290
241363,HUSA2291
241365,HUSA2292
241354,HUSA2293
241348,HUSA2294
240038,HUSA2295
241369,HUSA2296
240132,HUSA2297
240040,HUSA2298
,HUSA2299
241332,HUSA2300
240044,HUSA2301
260032,HUSA2302
260191,HUSA2303
260162,HUSA2304
261325,HUSA2305
260034,HUSA2306
260214,HUSA2307
260227,HUSA2308
260068,HUSA2309
260009,HUSA2310
260057,HUSA2311
260047,HUSA2312
261332,HUSA2313
261324,HUSA2314
260095,HUSA2315
263302,HUSA2316
260180,HUSA2317
260195,HUSA2318
261303,HUSA2319
260004,HUSA2320
260094,HUSA2321
260040,HUSA2322
261329,HUSA2323
260176,HUSA2324
,HUSA2325
260142,HUSA2326
260137,HUSA2327
260209,HUSA2328
260175,HUSA2329
260025,HUSA2330
261312,HUSA2331
,HUSA2332
261321,HUSA2333
261314,HUSA2334
261334,HUSA2335
,HUSA2336
,HUSA2337
26004F,HUSA2338
,HUSA2339
,HUSA2340
261320,HUSA2341
260186,HUSA2342
,HUSA2343
,HUSA2344
,HUSA2345
260190,HUSA2346
260177,HUSA2347
,HUSA2348
,HUSA2349
261316,HUSA2350
261338,HUSA2351
261317,HUSA2352
260023,HUSA2353
260001,HUSA2354
260059,HUSA2355
261319,HUSA2356
260065,HUSA2357
260020,HUSA2358
260052,HUSA2359
261335,HUSA2360
260108,HUSA2361
261337,HUSA2362
260113,HUSA2363
260074,HUSA2364
260061,HUSA2365
260096,HUSA2366
260022,HUSA2367
261328,HUSA2368
260207,HUSA2369
260078,HUSA2370
260163,HUSA2371
260116,HUSA2372
260070,HUSA2373
261311,HUSA2374
261307,HUSA2375
260017,HUSA2376
261333,HUSA2377
260119,HUSA2378
260219,HUSA2379
261305,HUSA2380
261327,HUSA2381
260027,HUSA2382
,HUSA2383
260183,HUSA2384
260216,HUSA2385
260062,HUSA2386
261318,HUSA2387
,HUSA2388
261310,HUSA2389
,HUSA2390
260229,HUSA2391
260080,HUSA2392
260110,HUSA2393
260160,HUSA2394
260104,HUSA2395
260105,HUSA2396
260011,HUSA2397
260064,HUSA2398
260081,HUSA2399
260005,HUSA2400
260200,HUSA2401
260091,HUSA2402
260210,HUSA2403
260077,HUSA2404
260085,HUSA2405
26009F,HUSA2406
260179,HUSA2407
260138,HUSA2408
260193,HUSA2409
261330,HUSA2410
261306,HUSA2411
260024,HUSA2412
260048,HUSA2413
260102,HUSA2414
260015,HUSA2415
260141,HUSA2416
261308,HUSA2417
260097,HUSA2418
261309,HUSA2419
,HUSA2420
,HUSA2421
,HUSA2422
251302,HUSA2423
251334,HUSA2424
250025,HUSA2425
250128,HUSA2426
250162,HUSA2427
250018,HUSA2428
250007,HUSA2429
25042F,HUSA2430
250044,HUSA2431
250096,HUSA2432
250057,HUSA2433
251331,HUSA2434
250038,HUSA2435
251315,HUSA2436
251309,HUSA2437
251304,HUSA2438
250042,HUSA2439
250093,HUSA2440
251325,HUSA2441
250085,HUSA2442
250100,HUSA2443
250009,HUSA2444
251335,HUSA2445
250020,HUSA2446
250060,HUSA2447
250138,HUSA2448
250136,HUSA2449
251300,HUSA2450
250082,HUSA2451
250099,HUSA2452
250168,HUSA2453
250123,HUSA2454
250019,HUSA2455
250078,HUSA2456
250094,HUSA2457
251327,HUSA2458
250012,HUSA2459
250017,HUSA2460
250095,HUSA2461
250002,HUSA2462
25043F,HUSA2463
250072,HUSA2464
250102,HUSA2465
250152,HUSA2466
250048,HUSA2467
250001,HUSA2468
251336,HUSA2469
250058,HUSA2470
251329,HUSA2471
251319,HUSA2472
250027,HUSA2473
250036,HUSA2474
250124,HUSA2475
250049,HUSA2476
251314,HUSA2477
250097,HUSA2478
251330,HUSA2479
251317,HUSA2480
250151,HUSA2481
250104,HUSA2482
250081,HUSA2483
250069,HUSA2484
251305,HUSA2485
251323,HUSA2486
250084,HUSA2487
250122,HUSA2488
250006,HUSA2489
251332,HUSA2490
250167,HUSA2491
250034,HUSA2492
250040,HUSA2493
250127,HUSA2494
250043,HUSA2495
250117,HUSA2496
251308,HUSA2497
251333,HUSA2498
251320,HUSA2499
251326,HUSA2500
251316,HUSA2501
250163,HUSA2502
251306,HUSA2503
250010,HUSA2504
250079,HUSA2505
251318,HUSA2506
250126,HUSA2507
250141,HUSA2508
250050,HUSA2509
250004,HUSA2510
251324,HUSA2511
251322,HUSA2512
250031,HUSA2513
250061,HUSA2514
250077,HUSA2515
250067,HUSA2516
250134,HUSA2517
251303,HUSA2518
251312,HUSA2519
251313,HUSA2520
271335,HUSA2521
271311,HUSA2522
271313,HUSA2523
270004,HUSA2524
270049,HUSA2525
270057,HUSA2526
270074,HUSA2527
270017,HUSA2528
271334,HUSA2529
271307,HUSA2530
271305,HUSA2531
271330,HUSA2532
271324,HUSA2533
271339,HUSA2534
271308,HUSA2535
271337,HUSA2536
271318,HUSA2537
271302,HUSA2538
271327,HUSA2539
271304,HUSA2540
27003F,HUSA2541
271316,HUSA2542
271332,HUSA2543
270012,HUSA2544
270086,HUSA2545
271340,HUSA2546
271338,HUSA2547
271321,HUSA2548
270032,HUSA2549
270003,HUSA2550
271310,HUSA2551
270051,HUSA2552
270087,HUSA2553
271345,HUSA2554
271320,HUSA2555
271317,HUSA2556
271312,HUSA2557
271347,HUSA2558
270023,HUSA2559
270014,HUSA2560
271303,HUSA2561
271323,HUSA2562
271322,HUSA2563
271343,HUSA2564
271300,HUSA2565
271326,HUSA2566
271325,HUSA2567
271346,HUSA2568
271342,HUSA2569
271328,HUSA2570
271319,HUSA2571
271344,HUSA2572
271331,HUSA2573
271309,HUSA2574
271333,HUSA2575
271306,HUSA2576
271336,HUSA2577
271341,HUSA2578
340070,HUSA2579
341320,HUSA2580
341326,HUSA2581
341325,HUSA2582
34036F,HUSA2583
340071,HUSA2584
341329,HUSA2585
340041,HUSA2586
340188,HUSA2587
340028,HUSA2588
341315,HUSA2589
340131,HUSA2590
340084,HUSA2591
340021,HUSA2592
340037,HUSA2593
340145,HUSA2594
340098,HUSA2595
340130,HUSA2596
340075,HUSA2597
340166,HUSA2598
340001,HUSA2599
340113,HUSA2600
340032,HUSA2601
340142,HUSA2602
340143,HUSA2603
340020,HUSA2604
341323,HUSA2605
341311,HUSA2606
340156,HUSA2607
340068,HUSA2608
340187,HUSA2609
340144,HUSA2610
340073,HUSA2611
340155,HUSA2612
340030,HUSA2613
34012F,HUSA2614
34013F,HUSA2615
341303,HUSA2616
340115,HUSA2617
340116,HUSA2618
340127,HUSA2619
340151,HUSA2620
340016,HUSA2621
340184,HUSA2622
340004,HUSA2623
341316,HUSA2624
340097,HUSA2625
340039,HUSA2626
341327,HUSA2627
340090,HUSA2628
340129,HUSA2629
340027,HUSA2630
340096,HUSA2631
340017,HUSA2632
340132,HUSA2633
340133,HUSA2634
340002,HUSA2635
340060,HUSA2636
340091,HUSA2637
340147,HUSA2638
340141,HUSA2639
340047,HUSA2640
340049,HUSA2641
340003,HUSA2642
340158,HUSA2643
340014,HUSA2644
340036,HUSA2645
340183,HUSA2646
340148,HUSA2647
340053,HUSA2648
340015,HUSA2649
340085,HUSA2650
340042,HUSA2651
341302,HUSA2652
340023,HUSA2653
341307,HUSA2654
340159,HUSA2655
341317,HUSA2656
340171,HUSA2657
340123,HUSA2658
340114,HUSA2659
340013,HUSA2660
340024,HUSA2661
340106,HUSA2662
340008,HUSA2663
340109,HUSA2664
340050,HUSA2665
341322,HUSA2666
340119,HUSA2667
341305,HUSA2668
340087,HUSA2669
341324,HUSA2670
341319,HUSA2671
340061,HUSA2672
340186,HUSA2673
341304,HUSA2674
341318,HUSA2675
340120,HUSA2676
340107,HUSA2677
340040,HUSA2678
340099,HUSA2679
34017F,HUSA2680
340173,HUSA2681
340069,HUSA2682
341314,HUSA2683
340051,HUSA2684
340010,HUSA2685
340064,HUSA2686
340168,HUSA2687
340126,HUSA2688
341308,HUSA2689
350019,HUSA2690
351322,HUSA2691
351318,HUSA2692
351323,HUSA2693
351304,HUSA2694
351306,HUSA2695
350070,HUSA2696
35002F,HUSA2697
351326,HUSA2698
351303,HUSA2699
351332,HUSA2700
351314,HUSA2701
351335,HUSA2702
351305,HUSA2703
351328,HUSA2704
351311,HUSA2705
351302,HUSA2706
351324,HUSA2707
351334,HUSA2708
351301,HUSA2709
351308,HUSA2710
351312,HUSA2711
351315,HUSA2712
350063,HUSA2713
351319,HUSA2714
351316,HUSA2715
351310,HUSA2716
351329,HUSA2717
351309,HUSA2718
350015,HUSA2719
350011,HUSA2720
351313,HUSA2721
350002,HUSA2722
351327,HUSA2723
351307,HUSA2724
351336,HUSA2725
351325,HUSA2726
350064,HUSA2727
351333,HUSA2728
351300,HUSA2729
351331,HUSA2730
350006,HUSA2731
351320,HUSA2732
351330,HUSA2733
351321,HUSA2734
281314,HUSA2735
281326,HUSA2736
281331,HUSA2737
281329,HUSA2738
281364,HUSA2739
280132,HUSA2740
281334,HUSA2741
281360,HUSA2742
281315,HUSA2743
281325,HUSA2744
280003,HUSA2745
281332,HUSA2746
281335,HUSA2747
281341,HUSA2748
281351,HUSA2749
281344,HUSA2750
280060,HUSA2751
280030,HUSA2752
280009,HUSA2753
280081,HUSA2754
280130,HUSA2755
280105,HUSA2756
280128,HUSA2757
281346,HUSA2758
281323,HUSA2759
280020,HUSA2760
280023,HUSA2761
281342,HUSA2762
283301,HUSA2763
280111,HUSA2764
281363,HUSA2765
281352,HUSA2766
281309,HUSA2767
281327,HUSA2768
281354,HUSA2769
281340,HUSA2770
280125,HUSA2771
281301,HUSA2772
281311,HUSA2773
280077,HUSA2774
281312,HUSA2775
281358,HUSA2776
281313,HUSA2777
280065,HUSA2778
281300,HUSA2779
281308,HUSA2780
281338,HUSA2781
281319,HUSA2782
281365,HUSA2783
281350,HUSA2784
281306,HUSA2785
280134,HUSA2786
281305,HUSA2787
281361,HUSA2788
280127,HUSA2789
281328,HUSA2790
280032,HUSA2791
281359,HUSA2792
281339,HUSA2793
281320,HUSA2794
280040,HUSA2795
280131,HUSA2796
281318,HUSA2797
280129,HUSA2798
280133,HUSA2799
281324,HUSA2800
281303,HUSA2801
281321,HUSA2802
281355,HUSA2803
28006F,HUSA2804
281347,HUSA2805
281302,HUSA2806
281349,HUSA2807
281356,HUSA2808
281362,HUSA2809
281345,HUSA2810
281310,HUSA2811
280061,HUSA2812
281333,HUSA2813
281307,HUSA2814
281357,HUSA2815
281322,HUSA2816
281304,HUSA2817
280013,HUSA2818
281348,HUSA2819
281353,HUSA2820
281330,HUSA2821
281316,HUSA2822
281343,HUSA2823
281336,HUSA2824
301305,HUSA2825
301310,HUSA2826
300034,HUSA2827
300019,HUSA2828
300001,HUSA2829
301301,HUSA2830
300012,HUSA2831
300023,HUSA2832
301306,HUSA2833
300014,HUSA2834
301312,HUSA2835
300005,HUSA2836
301302,HUSA2837
300003,HUSA2838
301307,HUSA2839
301309,HUSA2840
301304,HUSA2841
300017,HUSA2842
300029,HUSA2843
300020,HUSA2844
301311,HUSA2845
300011,HUSA2846
301300,HUSA2847
301308,HUSA2848
301303,HUSA2849
300018,HUSA2850
310064,HUSA2851
310112,HUSA2852
310058,HUSA2853
310011,HUSA2854
310044,HUSA2855
310092,HUSA2856
310025,HUSA2857
310016,HUSA2858
310040,HUSA2859
310111,HUSA2860
310017,HUSA2861
310009,HUSA2862
310041,HUSA2863
310014,HUSA2864
310031,HUSA2865
310083,HUSA2866
310045,HUSA2867
310001,HUSA2868
310130,HUSA2869
310054,HUSA2870
310115,HUSA2871
310008,HUSA2872
310005,HUSA2873
310069,HUSA2874
310032,HUSA2875
310081,HUSA2876
310074,HUSA2877
310073,HUSA2878
310108,HUSA2879
310086,HUSA2880
310061,HUSA2881
310118,HUSA2882
310091,HUSA2883
310075,HUSA2884
310084,HUSA2885
310015,HUSA2886
310002,HUSA2887
310028,HUSA2888
310052,HUSA2889
310029,HUSA2890
310051,HUSA2891
310003,HUSA2892
310039,HUSA2893
310034,HUSA2894
310038,HUSA2895
310024,HUSA2896
310110,HUSA2897
310048,HUSA2898
310076,HUSA2899
310050,HUSA2900
310096,HUSA2901
310070,HUSA2902
310047,HUSA2903
310113,HUSA2904
310021,HUSA2905
310019,HUSA2906
310060,HUSA2907
310006,HUSA2908
310027,HUSA2909
310010,HUSA2910
310119,HUSA2911
31001F,HUSA2912
310012,HUSA2913
310057,HUSA2914
310022,HUSA2915
320003,HUSA2916
320030,HUSA2917
320063,HUSA2918
320002,HUSA2919
321308,HUSA2920
320062,HUSA2921
320070,HUSA2922
321302,HUSA2923
320006,HUSA2924
320061,HUSA2925
320004,HUSA2926
320016,HUSA2927
320067,HUSA2928
320013,HUSA2929
320065,HUSA2930
321306,HUSA2931
320033,HUSA2932
320009,HUSA2933
320086,HUSA2934
320074,HUSA2935
320017,HUSA2936
320018,HUSA2937
320058,HUSA2938
321309,HUSA2939
321307,HUSA2940
320085,HUSA2941
321305,HUSA2942
320059,HUSA2943
320022,HUSA2944
320011,HUSA2945
320021,HUSA2946
320038,HUSA2947
320084,HUSA2948
320005,HUSA2949
320057,HUSA2950
321300,HUSA2951
321301,HUSA2952
321304,HUSA2953
,HUSA2954
320089,HUSA2955
32005F,HUSA2956
320060,HUSA2957
290006,HUSA2958
291303,HUSA2959
291309,HUSA2960
290019,HUSA2961
291306,HUSA2962
290054,HUSA2963
290022,HUSA2964
291311,HUSA2965
291312,HUSA2966
291308,HUSA2967
291301,HUSA2968
291307,HUSA2969
291300,HUSA2970
290039,HUSA2971
290005,HUSA2972
290008,HUSA2973
290032,HUSA2974
290020,HUSA2975
291304,HUSA2976
,HUSA2977
290049,HUSA2978
290009,HUSA2979
290051,HUSA2980
290002,HUSA2981
290047,HUSA2982
290046,HUSA2983
290012,HUSA2984
290053,HUSA2985
290045,HUSA2986
290041,HUSA2987
290003,HUSA2988
290007,HUSA2989
29002F,HUSA2990
290021,HUSA2991
291302,HUSA2992
330079,HUSA2993
330013,HUSA2994
330003,HUSA2995
33009F,HUSA2996
330084,HUSA2997
330090,HUSA2998
330235,HUSA2999
330085,HUSA3000
33011F,HUSA3001
330204,HUSA3002
330111,HUSA3003
330169,HUSA3004
330135,HUSA3005
33016F,HUSA3006
330009,HUSA3007
330233,HUSA3008
330141,HUSA3009
330056,HUSA3010
330229,HUSA3011
330409,HUSA3012
33013F,HUSA3013
330197,HUSA3014
331318,HUSA3015
330386,HUSA3016
331303,HUSA3017
330307,HUSA3018
330250,HUSA3019
330033,HUSA3020
330211,HUSA3021
331307,HUSA3022
330265,HUSA3023
330268,HUSA3024
330094,HUSA3025
331316,HUSA3026
330196,HUSA3027
330277,HUSA3028
330175,HUSA3029
330203,HUSA3030
331301,HUSA3031
331312,HUSA3032
330088,HUSA3033
330163,HUSA3034
331302,HUSA3035
331310,HUSA3036
330153,HUSA3037
330128,HUSA3038
330219,HUSA3039
330074,HUSA3040
330044,HUSA3041
330193,HUSA3042
330353,HUSA3043
330372,HUSA3044
330058,HUSA3045
330181,HUSA3046
330191,HUSA3047
330286,HUSA3048
330158,HUSA3049
331315,HUSA3050
330240,HUSA3051
330004,HUSA3052
330224,HUSA3053
330405,HUSA3054
330164,HUSA3055
330270,HUSA3056
330045,HUSA3057
330397,HUSA3058
330144,HUSA3059
330127,HUSA3060
330014,HUSA3061
330185,HUSA3062
330096,HUSA3063
330005,HUSA3064
330102,HUSA3065
330202,HUSA3066
330201,HUSA3067
330061,HUSA3068
330119,HUSA3069
331317,HUSA3070
330080,HUSA3071
331311,HUSA3072
330195,HUSA3073
330306,HUSA3074
,HUSA3075
331304,HUSA3076
330136,HUSA3077
330223,HUSA3078
330279,HUSA3079
330259,HUSA3080
330199,HUSA3081
330403,HUSA3082
330059,HUSA3083
330086,HUSA3084
330184,HUSA3085
331306,HUSA3086
330024,HUSA3087
330188,HUSA3088
330100,HUSA3089
330027,HUSA3090
330276,HUSA3091
330019,HUSA3092
330055,HUSA3093
330236,HUSA3094
330101,HUSA3095
330267,HUSA3096
,HUSA3097
330065,HUSA3098
330238,HUSA3099
330385,HUSA3100
330106,HUSA3101
330049,HUSA3102
330162,HUSA3103
33019F,HUSA3104
330104,HUSA3105
330214,HUSA3106
331305,HUSA3107
330103,HUSA3108
330115,HUSA3109
330126,HUSA3110
330218,HUSA3111
330011,HUSA3112
330107,HUSA3113
330261,HUSA3114
330331,HUSA3115
330273,HUSA3116
330231,HUSA3117
330028,HUSA3118
331309,HUSA3119
330125,HUSA3120
330215,HUSA3121
330180,HUSA3122
330157,HUSA3123
330222,HUSA3124
331313,HUSA3125
330078,HUSA3126
331314,HUSA3127
330198,HUSA3128
330340,HUSA3129
330043,HUSA3130
330205,HUSA3131
330399,HUSA3132
330401,HUSA3133
330246,HUSA3134
330245,HUSA3135
330182,HUSA3136
330151,HUSA3137
330395,HUSA3138
330208,HUSA3139
330332,HUSA3140
330140,HUSA3141
330108,HUSA3142
330006,HUSA3143
330264,HUSA3144
330046,HUSA3145
330232,HUSA3146
330047,HUSA3147
330057,HUSA3148
330160,HUSA3149
330285,HUSA3150
330406,HUSA3151
33024F,HUSA3152
330132,HUSA3153
330394,HUSA3154
330073,HUSA3155
330226,HUSA3156
330393,HUSA3157
330350,HUSA3158
330241,HUSA3159
33012F,HUSA3160
33015F,HUSA3161
33017F,HUSA3162
330023,HUSA3163
330234,HUSA3164
330166,HUSA3165
330304,HUSA3166
330404,HUSA3167
330167,HUSA3168
330239,HUSA3169
330396,HUSA3170
330221,HUSA3171
330008,HUSA3172
361326,HUSA3173
361334,HUSA3174
360159,HUSA3175
360151,HUSA3176
360027,HUSA3177
360131,HUSA3178
360125,HUSA3179
360076,HUSA3180
360084,HUSA3181
361323,HUSA3182
361321,HUSA3183
360259,HUSA3184
360107,HUSA3185
360153,HUSA3186
360170,HUSA3187
360179,HUSA3188
360095,HUSA3189
361322,HUSA3190
361316,HUSA3191
36008F,HUSA3192
360163,HUSA3193
36003F,HUSA3194
360180,HUSA3195
360002,HUSA3196
360014,HUSA3197
360121,HUSA3198
361327,HUSA3199
361301,HUSA3200
360109,HUSA3201
360351,HUSA3202
36007F,HUSA3203
360359,HUSA3204
360358,HUSA3205
360276,HUSA3206
36001F,HUSA3207
360096,HUSA3208
360080,HUSA3209
360137,HUSA3210
360082,HUSA3211
360072,HUSA3212
360077,HUSA3213
361331,HUSA3214
360025,HUSA3215
360065,HUSA3216
360058,HUSA3217
360152,HUSA3218
360017,HUSA3219
361333,HUSA3220
361325,HUSA3221
360039,HUSA3222
360085,HUSA3223
360052,HUSA3224
360134,HUSA3225
360006,HUSA3226
360032,HUSA3227
360133,HUSA3228
360247,HUSA3229
360026,HUSA3230
361308,HUSA3231
360241,HUSA3232
360274,HUSA3233
361311,HUSA3234
361309,HUSA3235
361332,HUSA3236
360230,HUSA3237
361330,HUSA3238
360054,HUSA3239
361320,HUSA3240
360263,HUSA3241
360016,HUSA3242
360079,HUSA3243
360361,HUSA3244
360040,HUSA3245
360098,HUSA3246
361328,HUSA3247
360218,HUSA3248
360009,HUSA3249
361303,HUSA3250
360087,HUSA3251
360189,HUSA3252
360147,HUSA3253
360210,HUSA3254
360197,HUSA3255
360143,HUSA3256
360046,HUSA3257
360010,HUSA3258
360348,HUSA3259
360091,HUSA3260
360092,HUSA3261
361318,HUSA3262
360156,HUSA3263
361306,HUSA3264
360234,HUSA3265
360001,HUSA3266
360236,HUSA3267
360056,HUSA3268
360270,HUSA3269
360070,HUSA3270
361312,HUSA3271
360172,HUSA3272
360262,HUSA3273
360081,HUSA3274
361304,HUSA3275
360132,HUSA3276
361310,HUSA3277
360059,HUSA3278
360051,HUSA3279
361313,HUSA3280
361315,HUSA3281
360012,HUSA3282
360035,HUSA3283
360212,HUSA3284
360118,HUSA3285
360011,HUSA3286
360090,HUSA3287
360266,HUSA3288
360041,HUSA3289
361300,HUSA3290
360148,HUSA3291
361314,HUSA3292
360261,HUSA3293
360185,HUSA3294
360078,HUSA3295
361319,HUSA3296
360360,HUSA3297
360144,HUSA3298
360203,HUSA3299
360008,HUSA3300
360155,HUSA3301
360086,HUSA3302
360075,HUSA3303
360064,HUSA3304
360123,HUSA3305
360245,HUSA3306
361324,HUSA3307
360066,HUSA3308
360037,HUSA3309
360019,HUSA3310
360020,HUSA3311
360150,HUSA3312
360355,HUSA3313
360239,HUSA3314
360074,HUSA3315
360089,HUSA3316
360362,HUSA3317
361302,HUSA3318
360211,HUSA3319
360055,HUSA3320
360192,HUSA3321
361307,HUSA3322
360112,HUSA3323
360068,HUSA3324
360145,HUSA3325
360048,HUSA3326
360161,HUSA3327
360175,HUSA3328
360003,HUSA3329
360141,HUSA3330
360174,HUSA3331
360071,HUSA3332
360044,HUSA3333
360354,HUSA3334
360013,HUSA3335
360029,HUSA3336
360352,HUSA3337
360036,HUSA3338
361329,HUSA3339
370180,HUSA3340
370020,HUSA3341
370022,HUSA3342
370080,HUSA3343
371314,HUSA3344
370083,HUSA3345
370047,HUSA3346
371300,HUSA3347
370018,HUSA3348
371322,HUSA3349
370030,HUSA3350
371307,HUSA3351
370041,HUSA3352
370235,HUSA3353
371324,HUSA3354
371334,HUSA3355
371303,HUSA3356
370054,HUSA3357
370173,HUSA3358
370039,HUSA3359
371320,HUSA3360
370029,HUSA3361
371319,HUSA3362
371325,HUSA3363
370099,HUSA3364
371331,HUSA3365
370023,HUSA3366
370014,HUSA3367
370236,HUSA3368
370225,HUSA3369
370011,HUSA3370
370019,HUSA3371
370016,HUSA3372
370026,HUSA3373
370169,HUSA3374
371318,HUSA3375
371329,HUSA3376
370051,HUSA3377
370113,HUSA3378
371317,HUSA3379
370138,HUSA3380
371310,HUSA3381
370183,HUSA3382
370153,HUSA3383
371321,HUSA3384
370036,HUSA3385
370100,HUSA3386
370048,HUSA3387
371313,HUSA3388
370056,HUSA3389
370097,HUSA3390
370170,HUSA3391
370214,HUSA3392
371326,HUSA3393
371330,HUSA3394
371306,HUSA3395
370034,HUSA3396
370004,HUSA3397
370094,HUSA3398
370025,HUSA3399
37012F,HUSA3400
370008,HUSA3401
371305,HUSA3402
371327,HUSA3403
371333,HUSA3404
370032,HUSA3405
370203,HUSA3406
370028,HUSA3407
370106,HUSA3408
370199,HUSA3409
370222,HUSA3410
370013,HUSA3411
370192,HUSA3412
370093,HUSA3413
370212,HUSA3414
37014F,HUSA3415
370215,HUSA3416
370234,HUSA3417
370206,HUSA3418
370220,HUSA3419
370037,HUSA3420
370201,HUSA3421
370057,HUSA3422
370228,HUSA3423
370227,HUSA3424
370156,HUSA3425
371309,HUSA3426
370139,HUSA3427
370006,HUSA3428
370040,HUSA3429
371301,HUSA3430
370015,HUSA3431
370158,HUSA3432
370112,HUSA3433
371312,HUSA3434
370103,HUSA3435
371332,HUSA3436
370229,HUSA3437
370007,HUSA3438
370149,HUSA3439
371335,HUSA3440
370049,HUSA3441
370178,HUSA3442
371316,HUSA3443
371328,HUSA3444
370089,HUSA3445
370171,HUSA3446
370172,HUSA3447
371304,HUSA3448
370202,HUSA3449
370001,HUSA3450
370078,HUSA3451
370210,HUSA3452
370233,HUSA3453
370218,HUSA3454
370091,HUSA3455
370190,HUSA3456
370114,HUSA3457
370216,HUSA3458
370065,HUSA3459
370166,HUSA3460
371302,HUSA3461
371311,HUSA3462
371323,HUSA3463
370072,HUSA3464
370002,HUSA3465
370211,HUSA3466
380060,HUSA3467
380005,HUSA3468
380018,HUSA3469
380002,HUSA3470
380090,HUSA3471
381305,HUSA3472
381320,HUSA3473
381312,HUSA3474
381322,HUSA3475
380014,HUSA3476
381325,HUSA3477
381321,HUSA3478
381307,HUSA3479
380103,HUSA3480
380091,HUSA3481
381309,HUSA3482
380007,HUSA3483
380017,HUSA3484
380089,HUSA3485
380025,HUSA3486
381311,HUSA3487
380020,HUSA3488
380027,HUSA3489
380001,HUSA3490
380009,HUSA3491
381316,HUSA3492
381301,HUSA3493
381310,HUSA3494
38003F,HUSA3495
381318,HUSA3496
380075,HUSA3497
380082,HUSA3498
380037,HUSA3499
380061,HUSA3500
381303,HUSA3501
380004,HUSA3502
380038,HUSA3503
380102,HUSA3504
380033,HUSA3505
380052,HUSA3506
380051,HUSA3507
380022,HUSA3508
381323,HUSA3509
381302,HUSA3510
381314,HUSA3511
380056,HUSA3512
380029,HUSA3513
380050,HUSA3514
381304,HUSA3515
381315,HUSA3516
381319,HUSA3517
381324,HUSA3518
380047,HUSA3519
380040,HUSA3520
381313,HUSA3521
381317,HUSA3522
380021,HUSA3523
38004F,HUSA3524
381306,HUSA3525
381308,HUSA3526
380071,HUSA3527
390231,HUSA3528
390163,HUSA3529
390323,HUSA3530
390142,HUSA3531
390050,HUSA3532
390032,HUSA3533
390115,HUSA3534
390302,HUSA3535
391309,HUSA3536
390072,HUSA3537
390118,HUSA3538
390076,HUSA3539
391304,HUSA3540
390168,HUSA3541
390312,HUSA3542
390160,HUSA3543
390058,HUSA3544
390151,HUSA3545
391313,HUSA3546
390179,HUSA3547
390026,HUSA3548
393303,HUSA3549
393302,HUSA3550
390093,HUSA3551
390052,HUSA3552
39004F,HUSA3553
390130,HUSA3554
390314,HUSA3555
391308,HUSA3556
390180,HUSA3557
390081,HUSA3558
390203,HUSA3559
390278,HUSA3560
390162,HUSA3561
390307,HUSA3562
390329,HUSA3563
390008,HUSA3564
391306,HUSA3565
390225,HUSA3566
39005F,HUSA3567
390013,HUSA3568
390217,HUSA3569
390219,HUSA3570
390145,HUSA3571
390267,HUSA3572
391303,HUSA3573
390003,HUSA3574
390001,HUSA3575
390006,HUSA3576
390270,HUSA3577
390048,HUSA3578
390065,HUSA3579
390194,HUSA3580
390066,HUSA3581
390057,HUSA3582
390266,HUSA3583
390290,HUSA3584
390233,HUSA3585
390068,HUSA3586
390036,HUSA3587
390037,HUSA3588
390184,HUSA3589
390097,HUSA3590
390004,HUSA3591
390111,HUSA3592
390173,HUSA3593
390056,HUSA3594
39001F,HUSA3595
390016,HUSA3596
390080,HUSA3597
390265,HUSA3598
390220,HUSA3599
391300,HUSA3600
390104,HUSA3601
390025,HUSA3602
390100,HUSA3603
390061,HUSA3604
390012,HUSA3605
39006F,HUSA3606
390133,HUSA3607
390185,HUSA3608
390263,HUSA3609
390071,HUSA3610
390070,HUSA3611
390114,HUSA3612
390139,HUSA3613
390195,HUSA3614
390153,HUSA3615
390113,HUSA3616
390101,HUSA3617
390236,HUSA3618
390110,HUSA3619
390156,HUSA3620
390116,HUSA3621
391302,HUSA3622
390198,HUSA3623
390256,HUSA3624
390147,HUSA3625
390119,HUSA3626
390268,HUSA3627
391301,HUSA3628
390062,HUSA3629
390204,HUSA3630
390157,HUSA3631
390325,HUSA3632
390019,HUSA3633
391312,HUSA3634
390086,HUSA3635
390154,HUSA3636
390223,HUSA3637
390226,HUSA3638
39009F,HUSA3639
390127,HUSA3640
390324,HUSA3641
390067,HUSA3642
390201,HUSA3643
390123,HUSA3644
390199,HUSA3645
390044,HUSA3646
390237,HUSA3647
390222,HUSA3648
390079,HUSA3649
390322,HUSA3650
390304,HUSA3651
390197,HUSA3652
390009,HUSA3653
390031,HUSA3654
390030,HUSA3655
390211,HUSA3656
390043,HUSA3657
390039,HUSA3658
390228,HUSA3659
390096,HUSA3660
390132,HUSA3661
390326,HUSA3662
390049,HUSA3663
390183,HUSA3664
390035,HUSA3665
390258,HUSA3666
390084,HUSA3667
390316,HUSA3668
390321,HUSA3669
390027,HUSA3670
390174,HUSA3671
391314,HUSA3672
391305,HUSA3673
390192,HUSA3674
391307,HUSA3675
390041,HUSA3676
390073,HUSA3677
390117,HUSA3678
390328,HUSA3679
390063,HUSA3680
390178,HUSA3681
390002,HUSA3682
390028,HUSA3683
390091,HUSA3684
390107,HUSA3685
390164,HUSA3686
390102,HUSA3687
39012F,HUSA3688
390272,HUSA3689
390146,HUSA3690
390150,HUSA3691
390042,HUSA3692
390125,HUSA3693
390138,HUSA3694
390327,HUSA3695
390090,HUSA3696
39013F,HUSA3697
390137,HUSA3698
390045,HUSA3699
390112,HUSA3700
390046,HUSA3701
400109,HUSA3702
400127,HUSA3703
400004,HUSA3704
400016,HUSA3705
400014,HUSA3706
400124,HUSA3707
400115,HUSA3708
400006,HUSA3709
400118,HUSA3710
400005,HUSA3711
400120,HUSA3712
400125,HUSA3713
400079,HUSA3714
400022,HUSA3715
400021,HUSA3716
400087,HUSA3717
400117,HUSA3718
400048,HUSA3719
400010,HUSA3720
400032,HUSA3721
400102,HUSA3722
400104,HUSA3723
400013,HUSA3724
400130,HUSA3725
400003,HUSA3726
400110,HUSA3727
400126,HUSA3728
400012,HUSA3729
400011,HUSA3730
400128,HUSA3731
400019,HUSA3732
400123,HUSA3733
400111,HUSA3734
400113,HUSA3735
400098,HUSA3736
400121,HUSA3737
400061,HUSA3738
400105,HUSA3739
400112,HUSA3740
400026,HUSA3741
400114,HUSA3742
400018,HUSA3743
400106,HUSA3744
400001,HUSA3745
400007,HUSA3746
400015,HUSA3747
40003F,HUSA3748
400044,HUSA3749
400009,HUSA3750
400103,HUSA3751
410009,HUSA3752
410011,HUSA3753
410001,HUSA3754
410012,HUSA3755
410006,HUSA3756
410005,HUSA3757
41005F,HUSA3758
410007,HUSA3759
410004,HUSA3760
410008,HUSA3761
410013,HUSA3762
410010,HUSA3763
421301,HUSA3764
420082,HUSA3765
421300,HUSA3766
420027,HUSA3767
420015,HUSA3768
420067,HUSA3769
420065,HUSA3770
420011,HUSA3771
420010,HUSA3772
420091,HUSA3773
420055,HUSA3774
42029F,HUSA3775
420019,HUSA3776
420062,HUSA3777
420069,HUSA3778
420101,HUSA3779
420030,HUSA3780
42011F,HUSA3781
420049,HUSA3782
420089,HUSA3783
421304,HUSA3784
421302,HUSA3785
420020,HUSA3786
420038,HUSA3787
420078,HUSA3788
420033,HUSA3789
420009,HUSA3790
420102,HUSA3791
420037,HUSA3792
420085,HUSA3793
420072,HUSA3794
420080,HUSA3795
420048,HUSA3796
420066,HUSA3797
420073,HUSA3798
420054,HUSA3799
420043,HUSA3800
420083,HUSA3801
420105,HUSA3802
420057,HUSA3803
420005,HUSA3804
420051,HUSA3805
420104,HUSA3806
420004,HUSA3807
420053,HUSA3808
420086,HUSA3809
420106,HUSA3810
420018,HUSA3811
420002,HUSA3812
420087,HUSA3813
420071,HUSA3814
420026,HUSA3815
420016,HUSA3816
420007,HUSA3817
420036,HUSA3818
420023,HUSA3819
420079,HUSA3820
420068,HUSA3821
420070,HUSA3822
420103,HUSA3823
420098,HUSA3824
420039,HUSA3825
421303,HUSA3826
431331,HUSA3827
431332,HUSA3828
431310,HUSA3829
431338,HUSA3830
431337,HUSA3831
430095,HUSA3832
430016,HUSA3833
430013,HUSA3834
430012,HUSA3835
431330,HUSA3836
430014,HUSA3837
430015,HUSA3838
431324,HUSA3839
430091,HUSA3840
431318,HUSA3841
430008,HUSA3842
431309,HUSA3843
431316,HUSA3844
431323,HUSA3845
430092,HUSA3846
431308,HUSA3847
431322,HUSA3848
431335,HUSA3849
431317,HUSA3850
431320,HUSA3851
430096,HUSA3852
431300,HUSA3853
431312,HUSA3854
431326,HUSA3855
431325,HUSA3856
430083,HUSA3857
430081,HUSA3858
430082,HUSA3859
430084,HUSA3860
431306,HUSA3861
430005,HUSA3862
430077,HUSA3863
430093,HUSA3864
430097,HUSA3865
431333,HUSA3866
431329,HUSA3867
431307,HUSA3868
431311,HUSA3869
430027,HUSA3870
431336,HUSA3871
430090,HUSA3872
43005F,HUSA3873
430089,HUSA3874
430048,HUSA3875
431327,HUSA3876
431321,HUSA3877
43002F,HUSA3878
431315,HUSA3879
431334,HUSA3880
440048,HUSA3881
440016,HUSA3882
440131,HUSA3883
440130,HUSA3884
440147,HUSA3885
440011,HUSA3886
440181,HUSA3887
441316,HUSA3888
440057,HUSA3889
440059,HUSA3890
441315,HUSA3891
440009,HUSA3892
440141,HUSA3893
440070,HUSA3894
440148,HUSA3895
440159,HUSA3896
440072,HUSA3897
440104,HUSA3898
440110,HUSA3899
440125,HUSA3900
440184,HUSA3901
440035,HUSA3902
440109,HUSA3903
440144,HUSA3904
440008,HUSA3905
440132,HUSA3906
440137,HUSA3907
440192,HUSA3908
440232,HUSA3909
440176,HUSA3910
440002,HUSA3911
440083,HUSA3912
440180,HUSA3913
440063,HUSA3914
441304,HUSA3915
440067,HUSA3916
441314,HUSA3917
440025,HUSA3918
440081,HUSA3919
440102,HUSA3920
440187,HUSA3921
441305,HUSA3922
441309,HUSA3923
440073,HUSA3924
440182,HUSA3925
441308,HUSA3926
440091,HUSA3927
44013F,HUSA3928
440168,HUSA3929
440049,HUSA3930
440034,HUSA3931
440111,HUSA3932
440060,HUSA3933
440030,HUSA3934
44016F,HUSA3935
440065,HUSA3936
440156,HUSA3937
440173,HUSA3938
440040,HUSA3939
441318,HUSA3940
440189,HUSA3941
440152,HUSA3942
441310,HUSA3943
440151,HUSA3944
441307,HUSA3945
440031,HUSA3946
440228,HUSA3947
441300,HUSA3948
440218,HUSA3949
440133,HUSA3950
440053,HUSA3951
440082,HUSA3952
440082,HUSA3953
440175,HUSA3954
440020,HUSA3955
440058,HUSA3956
440068,HUSA3957
440200,HUSA3958
440003,HUSA3959
440084,HUSA3960
440018,HUSA3961
440050,HUSA3962
440120,HUSA3963
440185,HUSA3964
440056,HUSA3965
440033,HUSA3966
440051,HUSA3967
440153,HUSA3968
440061,HUSA3969
440015,HUSA3970
441311,HUSA3971
440161,HUSA3972
440194,HUSA3973
440046,HUSA3974
440006,HUSA3975
440197,HUSA3976
440227,HUSA3977
440150,HUSA3978
441301,HUSA3979
440231,HUSA3980
440001,HUSA3981
440007,HUSA3982
440193,HUSA3983
44018F,HUSA3984
440039,HUSA3985
440010,HUSA3986
440012,HUSA3987
441313,HUSA3988
440032,HUSA3989
440017,HUSA3990
440029,HUSA3991
450558,HUSA3992
450488,HUSA3993
450078,HUSA3994
450871,HUSA3995
670093,HUSA3996
451310,HUSA3997
450346,HUSA3998
670078,HUSA3999
450058,HUSA4000
450231,HUSA4001
670096,HUSA4002
670062,HUSA4003
670097,HUSA4004
450851,HUSA4005
450730,HUSA4006
450853,HUSA4007
450079,HUSA4008
450883,HUSA4009
450422,HUSA4010
670067,HUSA4011
450890,HUSA4012
670087,HUSA4013
450563,HUSA4014
450219,HUSA4015
450280,HUSA4016
451374,HUSA4017
450372,HUSA4018
670082,HUSA4019
450137,HUSA4020
670076,HUSA4021
450880,HUSA4022
450874,HUSA4023
450021,HUSA4024
450097,HUSA4025
451320,HUSA4026
450253,HUSA4027
451378,HUSA4028
450497,HUSA4029
450072,HUSA4030
450399,HUSA4031
450587,HUSA4032
451305,HUSA4033
450605,HUSA4034
670043,HUSA4035
450885,HUSA4036
450272,HUSA4037
450193,HUSA4038
450369,HUSA4039
451326,HUSA4040
450034,HUSA4041
450573,HUSA4042
450237,HUSA4043
450828,HUSA4044
450082,HUSA4045
450046,HUSA4046
450163,HUSA4047
450801,HUSA4048
450023,HUSA4049
450617,HUSA4050
451366,HUSA4051
450073,HUSA4052
451347,HUSA4053
450299,HUSA4054
451355,HUSA4055
450370,HUSA4056
450108,HUSA4057
450222,HUSA4058
,HUSA4059
670045,HUSA4060
451331,HUSA4061
450825,HUSA4062
450788,HUSA4063
451379,HUSA4064
450755,HUSA4065
450539,HUSA4066
450040,HUSA4067
451353,HUSA4068
670090,HUSA4069
450597,HUSA4070
450716,HUSA4071
450379,HUSA4072
450688,HUSA4073
45066F,HUSA4074
453310,HUSA4075
450634,HUSA4076
450147,HUSA4077
450620,HUSA4078
450678,HUSA4079
450869,HUSA4080
450643,HUSA4081
450803,HUSA4082
453301,HUSA4083
450083,HUSA4084
450658,HUSA4085
450389,HUSA4086
450194,HUSA4087
451367,HUSA4088
451380,HUSA4089
450749,HUSA4090
450411,HUSA4091
450694,HUSA4092
450845,HUSA4093
451343,HUSA4094
670095,HUSA4095
670058,HUSA4096
450833,HUSA4097
450210,HUSA4098
450475,HUSA4099
450241,HUSA4100
450348,HUSA4101
451313,HUSA4102
450092,HUSA4103
450877,HUSA4104
670054,HUSA4105
450293,HUSA4106
450451,HUSA4107
451369,HUSA4108
450037,HUSA4109
450032,HUSA4110
450052,HUSA4111
450162,HUSA4112
450085,HUSA4113
451322,HUSA4114
450104,HUSA4115
450214,HUSA4116
450754,HUSA4117
451354,HUSA4118
450243,HUSA4119
451344,HUSA4120
450855,HUSA4121
450289,HUSA4122
451341,HUSA4123
450578,HUSA4124
450229,HUSA4125
450155,HUSA4126
450604,HUSA4127
450192,HUSA4128
450101,HUSA4129
450236,HUSA4130
450580,HUSA4131
450797,HUSA4132
450424,HUSA4133
450709,HUSA4134
450638,HUSA4135
670012,HUSA4136
670008,HUSA4137
45074F,HUSA4138
450677,HUSA4139
451321,HUSA4140
450352,HUSA4141
450347,HUSA4142
670021,HUSA4143
451307,HUSA4144
451363,HUSA4145
450039,HUSA4146
450827,HUSA4147
450775,HUSA4148
450128,HUSA4149
450746,HUSA4150
450596,HUSA4151
450742,HUSA4152
670079,HUSA4153
450698,HUSA4154
450029,HUSA4155
450822,HUSA4156
450107,HUSA4157
451376,HUSA4158
451303,HUSA4159
451357,HUSA4160
670094,HUSA4161
450702,HUSA4162
450876,HUSA4163
451351,HUSA4164
451316,HUSA4165
451333,HUSA4166
450465,HUSA4167
670010,HUSA4168
451309,HUSA4169
450489,HUSA4170
450132,HUSA4171
670103,HUSA4172
450675,HUSA4173
450669,HUSA4174
450403,HUSA4175
450651,HUSA4176
,HUSA4177
451330,HUSA4178
450005,HUSA4179
450184,HUSA4180
450847,HUSA4181
450610,HUSA4182
450684,HUSA4183
450848,HUSA4184
670005,HUSA4185
450068,HUSA4186
450235,HUSA4187
450508,HUSA4188
451356,HUSA4189
450395,HUSA4190
450211,HUSA4191
450780,HUSA4192
450723,HUSA4193
450051,HUSA4194
450388,HUSA4195
670073,HUSA4196
450358,HUSA4197
670023,HUSA4198
670069,HUSA4199
450537,HUSA4200
670055,HUSA4201
450820,HUSA4202
670077,HUSA4203
450844,HUSA4204
450152,HUSA4205
450133,HUSA4206
450176,HUSA4207
451342,HUSA4208
450221,HUSA4209
450102,HUSA4210
451319,HUSA4211
451372,HUSA4212
450656,HUSA4213
450447,HUSA4214
670089,HUSA4215
450130,HUSA4216
450641,HUSA4217
450809,HUSA4218
670049,HUSA4219
670024,HUSA4220
450087,HUSA4221
451315,HUSA4222
450090,HUSA4223
450808,HUSA4224
450209,HUSA4225
450796,HUSA4226
450330,HUSA4227
450661,HUSA4228
451364,HUSA4229
450747,HUSA4230
450565,HUSA4231
450099,HUSA4232
450196,HUSA4233
450659,HUSA4234
450015,HUSA4235
451334,HUSA4236
450400,HUSA4237
670106,HUSA4238
450178,HUSA4239
450144,HUSA4240
450007,HUSA4241
450834,HUSA4242
450894,HUSA4243
451350,HUSA4244
450672,HUSA4245
450042,HUSA4246
450002,HUSA4247
450875,HUSA4248
451301,HUSA4249
451377,HUSA4250
670098,HUSA4251
450711,HUSA4252
450055,HUSA4253
451323,HUSA4254
450718,HUSA4255
451361,HUSA4256
450340,HUSA4257
45090F,HUSA4258
450653,HUSA4259
450187,HUSA4260
670088,HUSA4261
670034,HUSA4262
450054,HUSA4263
451371,HUSA4264
451365,HUSA4265
450056,HUSA4266
670080,HUSA4267
670056,HUSA4268
670041,HUSA4269
450867,HUSA4270
450143,HUSA4271
450865,HUSA4272
450586,HUSA4273
450571,HUSA4274
450668,HUSA4275
670047,HUSA4276
450119,HUSA4277
450165,HUSA4278
450856,HUSA4279
670061,HUSA4280
450697,HUSA4281
450431,HUSA4282
450713,HUSA4283
450035,HUSA4284
450011,HUSA4285
670075,HUSA4286
670059,HUSA4287
670031,HUSA4288
670053,HUSA4289
450862,HUSA4290
670004,HUSA4291
450306,HUSA4292
450654,HUSA4293
450498,HUSA4294
450860,HUSA4295
450831,HUSA4296
451311,HUSA4297
451349,HUSA4298
451370,HUSA4299
45086F,HUSA4300
670083,HUSA4301
450064,HUSA4302
450891,HUSA4303
450135,HUSA4304
670085,HUSA4305
450419,HUSA4306
450148,HUSA4307
450888,HUSA4308
450779,HUSA4309
450351,HUSA4310
450639,HUSA4311
670071,HUSA4312
450462,HUSA4313
450840,HUSA4314
450743,HUSA4315
670068,HUSA4316
450292,HUSA4317
450771,HUSA4318
670044,HUSA4319
450889,HUSA4320
450804,HUSA4321
670060,HUSA4322
450864,HUSA4323
450324,HUSA4324
450893,HUSA4325
670025,HUSA4326
670006,HUSA4327
450518,HUSA4328
450080,HUSA4329
450670,HUSA4330
450774,HUSA4331
670050,HUSA4332
450460,HUSA4333
450010,HUSA4334
670019,HUSA4335
450213,HUSA4336
450686,HUSA4337
450124,HUSA4338
450024,HUSA4339
450690,HUSA4340
450018,HUSA4341
670046,HUSA4342
450872,HUSA4343
450044,HUSA4344
450766,HUSA4345
450177,HUSA4346
,HUSA4347
45063F,HUSA4348
450154,HUSA4349
450662,HUSA4350
450028,HUSA4351
450033,HUSA4352
451337,HUSA4353
450200,HUSA4354
670092,HUSA4355
451373,HUSA4356
450203,HUSA4357
450644,HUSA4358
450584,HUSA4359
450469,HUSA4360
450271,HUSA4361
450674,HUSA4362
450484,HUSA4363
451346,HUSA4364
451308,HUSA4365
460044,HUSA4366
460023,HUSA4367
460030,HUSA4368
460039,HUSA4369
460035,HUSA4370
461310,HUSA4371
460017,HUSA4372
460054,HUSA4373
460011,HUSA4374
461304,HUSA4375
460041,HUSA4376
461300,HUSA4377
460021,HUSA4378
461301,HUSA4379
460033,HUSA4380
461306,HUSA4381
461307,HUSA4382
460010,HUSA4383
460051,HUSA4384
461309,HUSA4385
460042,HUSA4386
460006,HUSA4387
460015,HUSA4388
460060,HUSA4389
460004,HUSA4390
461305,HUSA4391
461302,HUSA4392
460013,HUSA4393
460014,HUSA4394
460005,HUSA4395
460043,HUSA4396
460057,HUSA4397
,HUSA4398
460058,HUSA4399
460003,HUSA4400
461308,HUSA4401
461303,HUSA4402
460026,HUSA4403
460047,HUSA4404
460049,HUSA4405
460052,HUSA4406
460019,HUSA4407
460009,HUSA4408
460001,HUSA4409
46002F,HUSA4410
460007,HUSA4411
490018,HUSA4412
491300,HUSA4413
490088,HUSA4414
490011,HUSA4415
490017,HUSA4416
490069,HUSA4417
490094,HUSA4418
490136,HUSA4419
490059,HUSA4420
490127,HUSA4421
490089,HUSA4422
491302,HUSA4423
490042,HUSA4424
490024,HUSA4425
491304,HUSA4426
490117,HUSA4427
490021,HUSA4428
490120,HUSA4429
490112,HUSA4430
490060,HUSA4431
490098,HUSA4432
490019,HUSA4433
490075,HUSA4434
491303,HUSA4435
490023,HUSA4436
49006F,HUSA4437
490118,HUSA4438
490040,HUSA4439
490101,HUSA4440
490063,HUSA4441
490043,HUSA4442
490122,HUSA4443
490020,HUSA4444
490053,HUSA4445
490126,HUSA4446
490110,HUSA4447
490116,HUSA4448
490048,HUSA4449
490077,HUSA4450
490041,HUSA4451
490022,HUSA4452
490032,HUSA4453
490079,HUSA4454
490001,HUSA4455
490144,HUSA4456
490045,HUSA4457
491307,HUSA4458
491306,HUSA4459
490123,HUSA4460
490107,HUSA4461
49010F,HUSA4462
490143,HUSA4463
490052,HUSA4464
490037,HUSA4465
490084,HUSA4466
490130,HUSA4467
490002,HUSA4468
49011F,HUSA4469
490093,HUSA4470
490013,HUSA4471
490046,HUSA4472
490007,HUSA4473
490113,HUSA4474
490044,HUSA4475
490119,HUSA4476
490004,HUSA4477
490057,HUSA4478
490066,HUSA4479
491305,HUSA4480
490038,HUSA4481
490092,HUSA4482
490097,HUSA4483
490090,HUSA4484
490067,HUSA4485
490141,HUSA4486
490140,HUSA4487
490115,HUSA4488
490009,HUSA4489
490050,HUSA4490
490033,HUSA4491
490114,HUSA4492
490005,HUSA4493
490111,HUSA4494
480002,HUSA4495
480001,HUSA4496
470011,HUSA4497
470001,HUSA4498
471305,HUSA4499
471301,HUSA4500
471300,HUSA4501
471302,HUSA4502
471304,HUSA4503
471303,HUSA4504
470024,HUSA4505
471307,HUSA4506
470005,HUSA4507
470012,HUSA4508
471306,HUSA4509
,HUSA4510
47001F,HUSA4511
500139,HUSA4512
501313,HUSA4513
500060,HUSA4514
500016,HUSA4515
501317,HUSA4516
500148,HUSA4517
501308,HUSA4518
501302,HUSA4519
500044,HUSA4520
501311,HUSA4521
500084,HUSA4522
500124,HUSA4523
501322,HUSA4524
501325,HUSA4525
501301,HUSA4526
500031,HUSA4527
500052,HUSA4528
500064,HUSA4529
500039,HUSA4530
500011,HUSA4531
500007,HUSA4532
501323,HUSA4533
500058,HUSA4534
500053,HUSA4535
501333,HUSA4536
501316,HUSA4537
501334,HUSA4538
500150,HUSA4539
501305,HUSA4540
501337,HUSA4541
501336,HUSA4542
501328,HUSA4543
501319,HUSA4544
500015,HUSA4545
500079,HUSA4546
501310,HUSA4547
501321,HUSA4548
500001,HUSA4549
501314,HUSA4550
501307,HUSA4551
500072,HUSA4552
501318,HUSA4553
500051,HUSA4554
501340,HUSA4555
500050,HUSA4556
500030,HUSA4557
501329,HUSA4558
500041,HUSA4559
501312,HUSA4560
500019,HUSA4561
500077,HUSA4562
501326,HUSA4563
500014,HUSA4564
500054,HUSA4565
501309,HUSA4566
500002,HUSA4567
500024,HUSA4568
501331,HUSA4569
501320,HUSA4570
500033,HUSA4571
,HUSA4572
50030F,HUSA4573
500003,HUSA4574
501315,HUSA4575
501338,HUSA4576
50011F,HUSA4577
500151,HUSA4578
500021,HUSA4579
501335,HUSA4580
500141,HUSA4581
500108,HUSA4582
501304,HUSA4583
501330,HUSA4584
500026,HUSA4585
500152,HUSA4586
500027,HUSA4587
500025,HUSA4588
500129,HUSA4589
501324,HUSA4590
500037,HUSA4591
501332,HUSA4592
500008,HUSA4593
500119,HUSA4594
500088,HUSA4595
500005,HUSA4596
500049,HUSA4597
50013F,HUSA4598
501339,HUSA4599
501327,HUSA4600
501303,HUSA4601
500012,HUSA4602
500036,HUSA4603
521308,HUSA4604
520160,HUSA4605
521350,HUSA4606
521324,HUSA4607
520030,HUSA4608
520193,HUSA4609
520102,HUSA4610
520206,HUSA4611
520207,HUSA4612
520189,HUSA4613
520034,HUSA4614
520198,HUSA4615
520038,HUSA4616
520059,HUSA4617
520035,HUSA4618
520138,HUSA4619
520139,HUSA4620
520196,HUSA4621
520113,HUSA4622
520076,HUSA4623
521356,HUSA4624
520049,HUSA4625
520100,HUSA4626
521355,HUSA4627
521333,HUSA4628
521331,HUSA4629
521317,HUSA4630
521307,HUSA4631
520195,HUSA4632
520051,HUSA4633
520027,HUSA4634
521338,HUSA4635
520009,HUSA4636
521330,HUSA4637
521359,HUSA4638
521347,HUSA4639
520057,HUSA4640
521315,HUSA4641
521314,HUSA4642
521344,HUSA4643
520017,HUSA4644
521353,HUSA4645
521312,HUSA4646
521352,HUSA4647
521300,HUSA4648
520070,HUSA4649
520013,HUSA4650
521319,HUSA4651
520088,HUSA4652
520071,HUSA4653
520205,HUSA4654
520204,HUSA4655
521309,HUSA4656
520194,HUSA4657
520097,HUSA4658
520075,HUSA4659
521336,HUSA4660
521304,HUSA4661
521335,HUSA4662
520066,HUSA4663
520208,HUSA4664
520021,HUSA4665
520087,HUSA4666
520004,HUSA4667
521328,HUSA4668
521357,HUSA4669
521322,HUSA4670
52004F,HUSA4671
520089,HUSA4672
520083,HUSA4673
520098,HUSA4674
520107,HUSA4675
520037,HUSA4676
520109,HUSA4677
520103,HUSA4678
521340,HUSA4679
521339,HUSA4680
520177,HUSA4681
52003F,HUSA4682
520078,HUSA4683
520136,HUSA4684
520028,HUSA4685
520045,HUSA4686
521323,HUSA4687
521326,HUSA4688
521345,HUSA4689
520062,HUSA4690
521310,HUSA4691
521318,HUSA4692
520048,HUSA4693
521302,HUSA4694
521325,HUSA4695
521354,HUSA4696
520041,HUSA4697
520095,HUSA4698
520096,HUSA4699
521351,HUSA4700
520019,HUSA4701
520011,HUSA4702
521341,HUSA4703
521321,HUSA4704
521349,HUSA4705
521337,HUSA4706
521346,HUSA4707
520044,HUSA4708
521342,HUSA4709
521305,HUSA4710
521332,HUSA4711
521311,HUSA4712
520002,HUSA4713
521343,HUSA4714
521358,HUSA4715
521329,HUSA4716
521320,HUSA4717
52002F,HUSA4718
521313,HUSA4719
521348,HUSA4720
520116,HUSA4721
520008,HUSA4722
521334,HUSA4723
521327,HUSA4724
520063,HUSA4725
520202,HUSA4726
521316,HUSA4727
521303,HUSA4728
520033,HUSA4729
520091,HUSA4730
510062,HUSA4731
51002F,HUSA4732
510008,HUSA4733
510071,HUSA4734
511313,HUSA4735
511308,HUSA4736
511300,HUSA4737
510055,HUSA4738
510058,HUSA4739
510022,HUSA4740
51003F,HUSA4741
510030,HUSA4742
510047,HUSA4743
511307,HUSA4744
511316,HUSA4745
510002,HUSA4746
511311,HUSA4747
51004F,HUSA4748
511320,HUSA4749
511319,HUSA4750
510048,HUSA4751
51005F,HUSA4752
511303,HUSA4753
510024,HUSA4754
511318,HUSA4755
510039,HUSA4756
511317,HUSA4757
510012,HUSA4758
511314,HUSA4759
511315,HUSA4760
511312,HUSA4761
510046,HUSA4762
510070,HUSA4763
510013,HUSA4764
511306,HUSA4765
511304,HUSA4766
510031,HUSA4767
511321,HUSA4768
510007,HUSA4769
510038,HUSA4770
511310,HUSA4771
510082,HUSA4772
510029,HUSA4773
510006,HUSA4774
511309,HUSA4775
511301,HUSA4776
510023,HUSA4777
510086,HUSA4778
,HUSA4779
510072,HUSA4780
510050,HUSA4781
510077,HUSA4782
530002,HUSA4783
530014,HUSA4784
53004F,HUSA4785
531307,HUSA4786
531311,HUSA4787
530032,HUSA4788
531304,HUSA4789
530025,HUSA4790
531308,HUSA4791
531316,HUSA4792
531302,HUSA4793
530011,HUSA4794
530033,HUSA4795
531314,HUSA4796
531309,HUSA4797
531305,HUSA4798
531310,HUSA4799
530008,HUSA4800
530006,HUSA4801
53005F,HUSA4802
531301,HUSA4803
531315,HUSA4804
530015,HUSA4805
531313,HUSA4806
531306,HUSA4807
531312,HUSA4808
531303,HUSA4809
530012,HUSA4810
,HUSA4811
,HUSA4812
,HUSA4814
,HUSA4815
,HUSA4816
,HUSA4817
,HUSA4818
,HUSA4819
,HUSA4820
,HUSA4821
050327,HUSA4822
053305,HUSA4823
,HUSA4824
053309,HUSA4825
,HUSA4826
,HUSA4827
,HUSA4828
,HUSA4829
,HUSA4830
,HUSA4831
050599,HUSA4832
,HUSA4833
063301,HUSA4834
073300,HUSA4835
070022,HUSA4836
,HUSA4837
,HUSA4838
,HUSA4839
,HUSA4840
,HUSA4841
,HUSA4842
,HUSA4843
,HUSA4844
,HUSA4845
,HUSA4846
,HUSA4847
,HUSA4848
,HUSA4849
,HUSA4850
,HUSA4851
,HUSA4852
,HUSA4853
100113,HUSA4854
,HUSA4855
,HUSA4856
,HUSA4857
,HUSA4858
,HUSA4859
,HUSA4860
120022,HUSA4861
,HUSA4862
,HUSA4863
,HUSA4864
,HUSA4865
,HUSA4866
,HUSA4867
,HUSA4868
,HUSA4869
,HUSA4870
,HUSA4871
,HUSA4872
,HUSA4873
,HUSA4874
140119,HUSA4875
,HUSA4876
,HUSA4877
,HUSA4878
,HUSA4879
,HUSA4880
,HUSA4881
,HUSA4882
,HUSA4883
,HUSA4884
190064,HUSA4885
,HUSA4886
,HUSA4887
,HUSA4888
,HUSA4889
,HUSA4890
,HUSA4891
,HUSA4892
,HUSA4893
,HUSA4894
,HUSA4895
,HUSA4896
,HUSA4897
,HUSA4898
,HUSA4899
,HUSA4900
,HUSA4901
,HUSA4902
,HUSA4903
,HUSA4904
,HUSA4905
,HUSA4906
,HUSA4907
,HUSA4908
,HUSA4909
,HUSA4910
,HUSA4911
240004,HUSA4912
,HUSA4913
,HUSA4914
,HUSA4915
,HUSA4916
240080,HUSA4917
,HUSA4918
,HUSA4919
,HUSA4920
,HUSA4921
,HUSA4922
,HUSA4923
,HUSA4924
,HUSA4925
,HUSA4926
,HUSA4927
,HUSA4928
,HUSA4929
,HUSA4930
,HUSA4931
,HUSA4932
,HUSA4933
,HUSA4934
,HUSA4935
,HUSA4936
,HUSA4937
,HUSA4938
,HUSA4939
,HUSA4940
,HUSA4941
,HUSA4942
,HUSA4943
,HUSA4944
,HUSA4945
,HUSA4946
,HUSA4947
,HUSA4948
320001,HUSA4949
,HUSA4950
290001,HUSA4951
,HUSA4952
,HUSA4953
,HUSA4954
330194,HUSA4955
,HUSA4956
,HUSA4957
,HUSA4958
,HUSA4959
,HUSA4960
,HUSA4961
,HUSA4962
,HUSA4963
,HUSA4964
,HUSA4965
,HUSA4966
,HUSA4967
,HUSA4968
,HUSA4969
,HUSA4970
,HUSA4971
,HUSA4972
,HUSA4973
,HUSA4974
,HUSA4975
,HUSA4976
,HUSA4977
,HUSA4978
,HUSA4979
,HUSA4980
,HUSA4981
,HUSA4982
,HUSA4983
,HUSA4984
,HUSA4985
,HUSA4986
,HUSA4987
,HUSA4988
,HUSA4989
,HUSA4990
,HUSA4991
,HUSA4992
,HUSA4993
,HUSA4994
,HUSA4995
,HUSA4996
,HUSA4997
,HUSA4998
,HUSA4999
,HUSA5000
,HUSA5001
440183,HUSA5002
,HUSA5003
,HUSA5004
,HUSA5005
,HUSA5006
,HUSA5007
453300,HUSA5008
,HUSA5009
,HUSA5010
,HUSA5011
,HUSA5012
450647,HUSA5013
,HUSA5014
450002,HUSA5015
,HUSA5016
,HUSA5017
,HUSA5018
,HUSA5019
,HUSA5020
,HUSA5021
463301,HUSA5022
,HUSA5023
,HUSA5024
490024,HUSA5025
,HUSA5026
,HUSA5027
,HUSA5028
,HUSA5029
470003,HUSA5030
,HUSA5031
,HUSA5032
503300,HUSA5033
,HUSA5034
,HUSA5035
,HUSA5036
,HUSA5037
,HUSA5038
,HUSA5039
510001,HUSA5040
,
26023F,HUSA5042
26007F,HUSA5043
170201,HUSA5044
170194,HUSA5045
170199,HUSA5046
180117,HUSA5047
180149,HUSA5048
190065,HUSA5049
190208,HUSA5050
190304,HUSA5051
190307,HUSA5052
190205,HUSA5053
190005,HUSA5054
220065,HUSA5055
260006,HUSA5056
260050,HUSA5057
660001,HUSA5058
330030,HUSA5059
171312,HUSA5060
171352,HUSA5061
171365,HUSA5062
171368,HUSA5063
181320,HUSA5064
181312,HUSA5065
191303,HUSA5066
